가능역,0,0,0,NNP,지명,,가능역,Compound,*,*,+역,가능/NNG/*+역/NNG/*,Place-station
가수원역,0,0,0,NNP,지명,,가수원역,Compound,*,*,가수원+역,가수원/NNP/지명+역/NNG/*,Place-station
가양역,0,0,0,NNP,지명,,가양역,Compound,*,*,가양+역,가양/NNP/지명+역/NNG/*,Place-station
가좌역,0,0,0,NNP,지명,,가좌역,Compound,*,*,가좌+역,가좌/NNP/지명+역/NNG/*,Place-station
가천역,0,0,0,NNP,지명,,가천역,Compound,*,*,가천+역,가천/NNP/지명+역/NNG/*,Place-station
가평역,0,0,0,NNP,지명,,가평역,Compound,*,*,가평+역,가평/NNP/지명+역/NNG/*,Place-station
각계역,0,0,0,NNP,지명,,각계역,Compound,*,*,각계+역,각계/NNP/지명+역/NNG/*,Place-station
각산역,0,0,0,NNP,지명,,각산역,Compound,*,*,각산+역,각산/NNP/지명+역/NNG/*,Place-station
간석역,0,0,0,NNP,지명,,간석역,Compound,*,*,간석+역,간석/NNP/지명+역/NNG/*,Place-station
간치역,0,0,0,NNP,지명,,간치역,Compound,*,*,간치+역,간치/NNG/*+역/NNG/*,Place-station
갈마역,0,0,0,NNP,지명,,갈마역,Compound,*,*,갈마+역,갈마/NNP/지명+역/NNG/*,Place-station
갈매역,0,0,0,NNP,지명,,갈매역,Compound,*,*,갈매+역,갈매/NNP/지명+역/NNG/*,Place-station
감곡역,0,0,0,NNP,지명,,감곡역,Compound,*,*,감곡+역,감곡/NNP/지명+역/NNG/*,Place-station
감삼역,0,0,0,NNP,지명,,감삼역,Compound,*,*,감삼+역,감삼/NNP/지명+역/NNG/*,Place-station
감전역,0,0,0,NNP,지명,,감전역,Compound,*,*,감전+역,감전/NNP/지명+역/NNG/*,Place-station
갑천역,0,0,0,NNP,지명,,갑천역,Compound,*,*,갑천+역,갑천/NNP/지명+역/NNG/*,Place-station
강경역,0,0,0,NNP,지명,,강경역,Compound,*,*,강경+역,강경/NNP/지명+역/NNG/*,Place-station
강남역,0,0,0,NNP,지명,,강남역,Compound,*,*,강남+역,강남/NNP/지명+역/NNG/*,Place-station
강동역,0,0,0,NNP,지명,,강동역,Compound,*,*,강동+역,강동/NNP/지명+역/NNG/*,Place-station
강릉역,0,0,0,NNP,지명,,강릉역,Compound,*,*,강릉+역,강릉/NNP/지명+역/NNG/*,Place-station
강매역,0,0,0,NNP,지명,,강매역,Compound,*,*,강매+역,강매/NNP/지명+역/NNG/*,Place-station
강변역,0,0,0,NNP,지명,,강변역,Compound,*,*,강변+역,강변/NNG/*+역/NNG/*,Place-station
강촌역,0,0,0,NNP,지명,,강촌역,Compound,*,*,강촌+역,강촌/NNP/지명+역/NNG/*,Place-station
개금역,0,0,0,NNP,지명,,개금역,Compound,*,*,개금+역,개금/NNP/지명+역/NNG/*,Place-station
개봉역,0,0,0,NNP,지명,,개봉역,Compound,*,*,개봉+역,개봉/NNP/지명+역/NNG/*,Place-station
개운역,0,0,0,NNP,지명,,개운역,Compound,*,*,개운+역,개운/NNP/지명+역/NNG/*,Place-station
개정역,0,0,0,NNP,지명,,개정역,Compound,*,*,개정+역,개정/NNP/지명+역/NNG/*,Place-station
개포역,0,0,0,NNP,지명,,개포역,Compound,*,*,개포+역,개포/NNP/지명+역/NNG/*,Place-station
개화역,0,0,0,NNP,지명,,개화역,Compound,*,*,개화+역,개화/NNP/지명+역/NNG/*,Place-station
거여역,0,0,0,NNP,지명,,거여역,Compound,*,*,거여+역,거여/NNP/지명+역/NNG/*,Place-station
거제역,0,0,0,NNP,지명,,거제역,Compound,*,*,거제+역,거제/NNP/지명+역/NNG/*,Place-station
거촌역,0,0,0,NNP,지명,,거촌역,Compound,*,*,거촌+역,거촌/NNP/지명+역/NNG/*,Place-station
건들바위역,0,0,0,NNP,지명,,건들바위역,Compound,*,*,건들바위+역,건들바위/NNP/지명+역/NNG/*,Place-station
건천역,0,0,0,NNP,지명,,건천역,Compound,*,*,건천+역,건천/NNP/지명+역/NNG/*,Place-station
검암역,0,0,0,NNP,지명,,검암역,Compound,*,*,검암+역,검암/NNP/지명+역/NNG/*,Place-station
경산역,0,0,0,NNP,지명,,경산역,Compound,*,*,경산+역,경산/NNP/지명+역/NNG/*,Place-station
경주역,0,0,0,NNP,지명,,경주역,Compound,*,*,경주+역,경주/NNP/지명+역/NNG/*,Place-station
경화역,0,0,0,NNP,지명,,경화역,Compound,*,*,경화+역,경화/NNP/지명+역/NNG/*,Place-station
계룡역,0,0,0,NNP,지명,,계룡역,Compound,*,*,계룡+역,계룡/NNP/지명+역/NNG/*,Place-station
계산역,0,0,0,NNP,지명,,계산역,Compound,*,*,계산+역,계산/NNP/지명+역/NNG/*,Place-station
계양역,0,0,0,NNP,지명,,계양역,Compound,*,*,계양+역,계양/NNP/지명+역/NNG/*,Place-station
고덕역,0,0,0,NNP,지명,,고덕역,Compound,*,*,고덕+역,고덕/NNP/지명+역/NNG/*,Place-station
고려대역,0,0,0,NNP,지명,,고려대역,Compound,*,*,고려대+역,고려대/NNP/*+역/NNG/*,Place-station
고명역,0,0,0,NNP,지명,,고명역,Compound,*,*,고명+역,고명/NNP/지명+역/NNG/*,Place-station
고모역,0,0,0,NNP,지명,,고모역,Compound,*,*,고모+역,고모/NNP/지명+역/NNG/*,Place-station
고사리역,0,0,0,NNP,지명,,고사리역,Compound,*,*,고사리+역,고사리/NNP/지명+역/NNG/*,Place-station
고산역,0,0,0,NNP,지명,,고산역,Compound,*,*,고산+역,고산/NNP/지명+역/NNG/*,Place-station
고잔역,0,0,0,NNP,지명,,고잔역,Compound,*,*,고잔+역,고잔/NNP/지명+역/NNG/*,Place-station
고진역,0,0,0,NNP,지명,,고진역,Compound,*,*,고진+역,고진/NNG/*+역/NNG/*,Place-station
고촌역,0,0,0,NNP,지명,,고촌역,Compound,*,*,고촌+역,고촌/NNP/지명+역/NNG/*,Place-station
고한역,0,0,0,NNP,지명,,고한역,Compound,*,*,고한+역,고한/NNP/지명+역/NNG/*,Place-station
곡산역,0,0,0,NNP,지명,,곡산역,Compound,*,*,곡산+역,곡산/NNP/지명+역/NNG/*,Place-station
곡성역,0,0,0,NNP,지명,,곡성역,Compound,*,*,곡성+역,곡성/NNP/지명+역/NNG/*,Place-station
곤제역,0,0,0,NNP,지명,,곤제역,Compound,*,*,곤제+역,곤제/NNG/*+역/NNG/*,Place-station
공단역,0,0,0,NNP,지명,,공단역,Compound,*,*,공단+역,공단/NNP/지명+역/NNG/*,Place-station
공덕역,0,0,0,NNP,지명,,공덕역,Compound,*,*,공덕+역,공덕/NNP/지명+역/NNG/*,Place-station
공릉역,0,0,0,NNP,지명,,공릉역,Compound,*,*,공릉+역,공릉/NNP/지명+역/NNG/*,Place-station
공전역,0,0,0,NNP,지명,,공전역,Compound,*,*,공전+역,공전/NNP/지명+역/NNG/*,Place-station
공항역,0,0,0,NNP,지명,,공항역,Compound,*,*,공항+역,공항/NNP/지명+역/NNG/*,Place-station
과천역,0,0,0,NNP,지명,,과천역,Compound,*,*,과천+역,과천/NNP/지명+역/NNG/*,Place-station
관악역,0,0,0,NNP,지명,,관악역,Compound,*,*,관악+역,관악/NNP/지명+역/NNG/*,Place-station
관촌역,0,0,0,NNP,지명,,관촌역,Compound,*,*,관촌+역,관촌/NNP/지명+역/NNG/*,Place-station
광곡역,0,0,0,NNP,지명,,광곡역,Compound,*,*,광곡+역,광곡/NNP/지명+역/NNG/*,Place-station
광명역,0,0,0,NNP,지명,,광명역,Compound,*,*,광명+역,광명/NNP/지명+역/NNG/*,Place-station
광안역,0,0,0,NNP,지명,,광안역,Compound,*,*,광안+역,광안/NNP/지명+역/NNG/*,Place-station
광양역,0,0,0,NNP,지명,,광양역,Compound,*,*,광양+역,광양/NNP/지명+역/NNG/*,Place-station
광주역,0,0,0,NNP,지명,,광주역,Compound,*,*,광주+역,광주/NNP/지명+역/NNG/*,Place-station
광천역,0,0,0,NNP,지명,,광천역,Compound,*,*,광천+역,광천/NNP/지명+역/NNG/*,Place-station
괴동역,0,0,0,NNP,지명,,괴동역,Compound,*,*,괴동+역,괴동/NNP/지명+역/NNG/*,Place-station
괴목역,0,0,0,NNP,지명,,괴목역,Compound,*,*,괴목+역,괴목/NNP/지명+역/NNG/*,Place-station
괴정역,0,0,0,NNP,지명,,괴정역,Compound,*,*,괴정+역,괴정/NNP/지명+역/NNG/*,Place-station
교대역,0,0,0,NNP,지명,,교대역,Compound,*,*,교대+역,교대/NNP/지명+역/NNG/*,Place-station
구로역,0,0,0,NNP,지명,,구로역,Compound,*,*,구로+역,구로/NNP/지명+역/NNG/*,Place-station
구룡역,0,0,0,NNP,지명,,구룡역,Compound,*,*,구룡+역,구룡/NNP/지명+역/NNG/*,Place-station
구리역,0,0,0,NNP,지명,,구리역,Compound,*,*,구리+역,구리/NNP/지명+역/NNG/*,Place-station
구명역,0,0,0,NNP,지명,,구명역,Compound,*,*,구명+역,구명/NNG/*+역/NNG/*,Place-station
구미역,0,0,0,NNP,지명,,구미역,Compound,*,*,구미+역,구미/NNP/지명+역/NNG/*,Place-station
구산역,0,0,0,NNP,지명,,구산역,Compound,*,*,구산+역,구산/NNP/지명+역/NNG/*,Place-station
구서역,0,0,0,NNP,지명,,구서역,Compound,*,*,구서+역,구서/NNP/지명+역/NNG/*,Place-station
구성역,0,0,0,NNP,지명,,구성역,Compound,*,*,구성+역,구성/NNP/지명+역/NNG/*,Place-station
구암역,0,0,0,NNP,지명,,구암역,Compound,*,*,구암+역,구암/NNP/지명+역/NNG/*,Place-station
구의역,0,0,0,NNP,지명,,구의역,Compound,*,*,구의+역,구의/NNP/지명+역/NNG/*,Place-station
구일역,0,0,0,NNP,지명,,구일역,Compound,*,*,구일+역,구일/NNP/지명+역/NNG/*,Place-station
구파발역,0,0,0,NNP,지명,,구파발역,Compound,*,*,구파발+역,구파발/NNP/지명+역/NNG/*,Place-station
구포역,0,0,0,NNP,지명,,구포역,Compound,*,*,구포+역,구포/NNP/지명+역/NNG/*,Place-station
구학역,0,0,0,NNP,지명,,구학역,Compound,*,*,구학+역,구학/NNP/지명+역/NNG/*,Place-station
국수역,0,0,0,NNP,지명,,국수역,Compound,*,*,국수+역,국수/NNP/지명+역/NNG/*,Place-station
군북역,0,0,0,NNP,지명,,군북역,Compound,*,*,군북+역,군북/NNP/지명+역/NNG/*,Place-station
군산역,0,0,0,NNP,지명,,군산역,Compound,*,*,군산+역,군산/NNP/지명+역/NNG/*,Place-station
군자역,0,0,0,NNP,지명,,군자역,Compound,*,*,군자+역,군자/NNP/지명+역/NNG/*,Place-station
군포역,0,0,0,NNP,지명,,군포역,Compound,*,*,군포+역,군포/NNP/지명+역/NNG/*,Place-station
귤현역,0,0,0,NNP,지명,,귤현역,Compound,*,*,귤현+역,귤현/NNP/지명+역/NNG/*,Place-station
극락강역,0,0,0,NNP,지명,,극락강역,Compound,*,*,극락강+역,극락강/NNP/지명+역/NNG/*,Place-station
금강역,0,0,0,NNP,지명,,금강역,Compound,*,*,금강+역,금강/NNP/지명+역/NNG/*,Place-station
금곡역,0,0,0,NNP,지명,,금곡역,Compound,*,*,금곡+역,금곡/NNP/지명+역/NNG/*,Place-station
금릉역,0,0,0,NNP,지명,,금릉역,Compound,*,*,금릉+역,금릉/NNP/지명+역/NNG/*,Place-station
금사역,0,0,0,NNP,지명,,금사역,Compound,*,*,금사+역,금사/NNP/지명+역/NNG/*,Place-station
금정역,0,0,0,NNP,지명,,금정역,Compound,*,*,금정+역,금정/NNP/지명+역/NNG/*,Place-station
금지역,0,0,0,NNP,지명,,금지역,Compound,*,*,금지+역,금지/NNP/지명+역/NNG/*,Place-station
금촌역,0,0,0,NNP,지명,,금촌역,Compound,*,*,금촌+역,금촌/NNP/지명+역/NNG/*,Place-station
금호역,0,0,0,NNP,지명,,금호역,Compound,*,*,금호+역,금호/NNP/지명+역/NNG/*,Place-station
기장역,0,0,0,NNP,지명,,기장역,Compound,*,*,기장+역,기장/NNP/지명+역/NNG/*,Place-station
기흥역,0,0,0,NNP,지명,,기흥역,Compound,*,*,기흥+역,기흥/NNP/지명+역/NNG/*,Place-station
길음역,0,0,0,NNP,지명,,길음역,Compound,*,*,길음+역,길음/NNP/지명+역/NNG/*,Place-station
김량장역,0,0,0,NNP,지명,,김량장역,Compound,*,*,김량장+역,김량장/NNP/지명+역/NNG/*,Place-station
김제역,0,0,0,NNP,지명,,김제역,Compound,*,*,김제+역,김제/NNP/지명+역/NNG/*,Place-station
김천역,0,0,0,NNP,지명,,김천역,Compound,*,*,김천+역,김천/NNP/지명+역/NNG/*,Place-station
까치산역,0,0,0,NNP,지명,,까치산역,Compound,*,*,까치+산+역,까치/NNG/*+산/NNG/*+역/NNG/*,Place-station
나원역,0,0,0,NNP,지명,,나원역,Compound,*,*,나원+역,나원/NNP/지명+역/NNG/*,Place-station
나전역,0,0,0,NNP,지명,,나전역,Compound,*,*,나전+역,나전/NNP/지명+역/NNG/*,Place-station
나주역,0,0,0,NNP,지명,,나주역,Compound,*,*,나주+역,나주/NNP/지명+역/NNG/*,Place-station
낙민역,0,0,0,NNP,지명,,낙민역,Compound,*,*,낙민+역,낙민/NNP/지명+역/NNG/*,Place-station
남산역,0,0,0,NNP,지명,,남산역,Compound,*,*,남산+역,남산/NNP/지명+역/NNG/*,Place-station
남성역,0,0,0,NNP,지명,,남성역,Compound,*,*,남성+역,남성/NNP/지명+역/NNG/*,Place-station
남성현역,0,0,0,NNP,지명,,남성현역,Compound,*,*,남성현+역,남성현/NNP/인명+역/NNG/*,Place-station
남원역,0,0,0,NNP,지명,,남원역,Compound,*,*,남원+역,남원/NNP/지명+역/NNG/*,Place-station
남창역,0,0,0,NNP,지명,,남창역,Compound,*,*,남창+역,남창/NNP/지명+역/NNG/*,Place-station
남천역,0,0,0,NNP,지명,,남천역,Compound,*,*,남천+역,남천/NNP/지명+역/NNG/*,Place-station
남태령역,0,0,0,NNP,지명,,남태령역,Compound,*,*,남태령+역,남태령/NNP/지명+역/NNG/*,Place-station
남평역,0,0,0,NNP,지명,,남평역,Compound,*,*,남평+역,남평/NNP/지명+역/NNG/*,Place-station
남포역,0,0,0,NNP,지명,,남포역,Compound,*,*,남포+역,남포/NNP/지명+역/NNG/*,Place-station
내당역,0,0,0,NNP,지명,,내당역,Compound,*,*,내당+역,내당/NNP/지명+역/NNG/*,Place-station
내수역,0,0,0,NNP,지명,,내수역,Compound,*,*,내수+역,내수/NNP/지명+역/NNG/*,Place-station
내판역,0,0,0,NNP,지명,,내판역,Compound,*,*,내판+역,내판/NNP/지명+역/NNG/*,Place-station
냉정역,0,0,0,NNP,지명,,냉정역,Compound,*,*,냉정+역,냉정/NNP/지명+역/NNG/*,Place-station
노들역,0,0,0,NNP,지명,,노들역,Compound,*,*,노들+역,노들/NNP/지명+역/NNG/*,Place-station
노량진역,0,0,0,NNP,지명,,노량진역,Compound,*,*,노량진+역,노량진/NNP/지명+역/NNG/*,Place-station
노령역,0,0,0,NNP,지명,,노령역,Compound,*,*,노령+역,노령/NNP/지명+역/NNG/*,Place-station
노안역,0,0,0,NNP,지명,,노안역,Compound,*,*,노안+역,노안/NNP/지명+역/NNG/*,Place-station
노원역,0,0,0,NNP,지명,,노원역,Compound,*,*,노원+역,노원/NNP/지명+역/NNG/*,Place-station
노은역,0,0,0,NNP,지명,,노은역,Compound,*,*,노은+역,노은/NNP/지명+역/NNG/*,Place-station
노포역,0,0,0,NNP,지명,,노포역,Compound,*,*,노포+역,노포/NNP/지명+역/NNG/*,Place-station
녹동역,0,0,0,NNP,지명,,녹동역,Compound,*,*,녹동+역,녹동/NNP/지명+역/NNG/*,Place-station
녹번역,0,0,0,NNP,지명,,녹번역,Compound,*,*,녹번+역,녹번/NNP/지명+역/NNG/*,Place-station
녹사평역,0,0,0,NNP,지명,,녹사평역,Compound,*,*,녹사평+역,녹사평/NNP/지명+역/NNG/*,Place-station
녹양역,0,0,0,NNP,지명,,녹양역,Compound,*,*,녹양+역,녹양/NNP/지명+역/NNG/*,Place-station
녹천역,0,0,0,NNP,지명,,녹천역,Compound,*,*,녹천+역,녹천/NNP/지명+역/NNG/*,Place-station
논산역,0,0,0,NNP,지명,,논산역,Compound,*,*,논산+역,논산/NNP/지명+역/NNG/*,Place-station
논현역,0,0,0,NNP,지명,,논현역,Compound,*,*,논현+역,논현/NNP/지명+역/NNG/*,Place-station
농성역,0,0,0,NNP,지명,,농성역,Compound,*,*,농성+역,농성/NNP/지명+역/NNG/*,Place-station
능곡역,0,0,0,NNP,지명,,능곡역,Compound,*,*,능곡+역,능곡/NNP/지명+역/NNG/*,Place-station
능주역,0,0,0,NNP,지명,,능주역,Compound,*,*,능주+역,능주/NNP/지명+역/NNG/*,Place-station
다산역,0,0,0,NNP,지명,,다산역,Compound,*,*,다산+역,다산/NNP/지명+역/NNG/*,Place-station
다시역,0,0,0,NNP,지명,,다시역,Compound,*,*,다시+역,다시/NNP/지명+역/NNG/*,Place-station
단성역,0,0,0,NNP,지명,,단성역,Compound,*,*,단성+역,단성/NNP/지명+역/NNG/*,Place-station
단양역,0,0,0,NNP,지명,,단양역,Compound,*,*,단양+역,단양/NNP/지명+역/NNG/*,Place-station
단촌역,0,0,0,NNP,지명,,단촌역,Compound,*,*,단촌+역,단촌/NNP/지명+역/NNG/*,Place-station
달천역,0,0,0,NNP,지명,,달천역,Compound,*,*,달천+역,달천/NNP/지명+역/NNG/*,Place-station
답십리역,0,0,0,NNP,지명,,답십리역,Compound,*,*,답십리+역,답십리/NNP/지명+역/NNG/*,Place-station
당리역,0,0,0,NNP,지명,,당리역,Compound,*,*,당리+역,당리/NNP/지명+역/NNG/*,Place-station
당산역,0,0,0,NNP,지명,,당산역,Compound,*,*,당산+역,당산/NNP/지명+역/NNG/*,Place-station
당정역,0,0,0,NNP,지명,,당정역,Compound,*,*,당정+역,당정/NNP/지명+역/NNG/*,Place-station
대곡역,0,0,0,NNP,지명,,대곡역,Compound,*,*,대곡+역,대곡/NNP/지명+역/NNG/*,Place-station
대구역,0,0,0,NNP,지명,,대구역,Compound,*,*,대구+역,대구/NNP/지명+역/NNG/*,Place-station
대동역,0,0,0,NNP,지명,,대동역,Compound,*,*,대동+역,대동/NNP/지명+역/NNG/*,Place-station
대림역,0,0,0,NNP,지명,,대림역,Compound,*,*,대림+역,대림/NNP/지명+역/NNG/*,Place-station
대명역,0,0,0,NNP,지명,,대명역,Compound,*,*,대명+역,대명/NNP/지명+역/NNG/*,Place-station
대방역,0,0,0,NNP,지명,,대방역,Compound,*,*,대방+역,대방/NNP/지명+역/NNG/*,Place-station
대불역,0,0,0,NNP,지명,,대불역,Compound,*,*,대불+역,대불/NNP/지명+역/NNG/*,Place-station
대사역,0,0,0,NNP,지명,,대사역,Compound,*,*,대사+역,대사/NNP/지명+역/NNG/*,Place-station
대신역,0,0,0,NNP,지명,,대신역,Compound,*,*,대신+역,대신/NNP/지명+역/NNG/*,Place-station
대야미역,0,0,0,NNP,지명,,대야미역,Compound,*,*,대야미+역,대야미/NNP/지명+역/NNG/*,Place-station
대야역,0,0,0,NNP,지명,,대야역,Compound,*,*,대야+역,대야/NNP/지명+역/NNG/*,Place-station
대연역,0,0,0,NNP,지명,,대연역,Compound,*,*,대연+역,대연/NNP/지명+역/NNG/*,Place-station
대저역,0,0,0,NNP,지명,,대저역,Compound,*,*,대저+역,대저/NNG/*+역/NNG/*,Place-station
대전역,0,0,0,NNP,지명,,대전역,Compound,*,*,대전+역,대전/NNP/지명+역/NNG/*,Place-station
대천역,0,0,0,NNP,지명,,대천역,Compound,*,*,대천+역,대천/NNP/지명+역/NNG/*,Place-station
대청역,0,0,0,NNP,지명,,대청역,Compound,*,*,대청+역,대청/NNP/지명+역/NNG/*,Place-station
대치역,0,0,0,NNP,지명,,대치역,Compound,*,*,대치+역,대치/NNP/지명+역/NNG/*,Place-station
대티역,0,0,0,NNP,지명,,대티역,Compound,*,*,대티+역,대티/NNP/지명+역/NNG/*,Place-station
대화역,0,0,0,NNP,지명,,대화역,Compound,*,*,대화+역,대화/NNP/지명+역/NNG/*,Place-station
대흥역,0,0,0,NNP,지명,,대흥역,Compound,*,*,대흥+역,대흥/NNP/지명+역/NNG/*,Place-station
덕계역,0,0,0,NNP,지명,,덕계역,Compound,*,*,덕계+역,덕계/NNP/지명+역/NNG/*,Place-station
덕산역,0,0,0,NNP,지명,,덕산역,Compound,*,*,덕산+역,덕산/NNP/지명+역/NNG/*,Place-station
덕소역,0,0,0,NNP,지명,,덕소역,Compound,*,*,덕소+역,덕소/NNP/지명+역/NNG/*,Place-station
덕양역,0,0,0,NNP,지명,,덕양역,Compound,*,*,덕양+역,덕양/NNP/지명+역/NNG/*,Place-station
덕정역,0,0,0,NNP,지명,,덕정역,Compound,*,*,덕정+역,덕정/NNP/지명+역/NNG/*,Place-station
덕천역,0,0,0,NNP,지명,,덕천역,Compound,*,*,덕천+역,덕천/NNP/지명+역/NNG/*,Place-station
덕포역,0,0,0,NNP,지명,,덕포역,Compound,*,*,덕포+역,덕포/NNP/지명+역/NNG/*,Place-station
덕하역,0,0,0,NNP,지명,,덕하역,Compound,*,*,덕하+역,덕하/NNP/지명+역/NNG/*,Place-station
도계역,0,0,0,NNP,지명,,도계역,Compound,*,*,도계+역,도계/NNP/지명+역/NNG/*,Place-station
도곡역,0,0,0,NNP,지명,,도곡역,Compound,*,*,도곡+역,도곡/NNP/지명+역/NNG/*,Place-station
도농역,0,0,0,NNP,지명,,도농역,Compound,*,*,도농+역,도농/NNP/지명+역/NNG/*,Place-station
도담역,0,0,0,NNP,지명,,도담역,Compound,*,*,도담+역,도담/NNP/지명+역/NNG/*,Place-station
도봉역,0,0,0,NNP,지명,,도봉역,Compound,*,*,도봉+역,도봉/NNP/지명+역/NNG/*,Place-station
도산역,0,0,0,NNP,지명,,도산역,Compound,*,*,도산+역,도산/NNP/지명+역/NNG/*,Place-station
도심역,0,0,0,NNP,지명,,도심역,Compound,*,*,도심+역,도심/NNP/지명+역/NNG/*,Place-station
도안역,0,0,0,NNP,지명,,도안역,Compound,*,*,도안+역,도안/NNP/지명+역/NNG/*,Place-station
도원역,0,0,0,NNP,지명,,도원역,Compound,*,*,도원+역,도원/NNP/지명+역/NNG/*,Place-station
도화역,0,0,0,NNP,지명,,도화역,Compound,*,*,도화+역,도화/NNP/지명+역/NNG/*,Place-station
독산역,0,0,0,NNP,지명,,독산역,Compound,*,*,독산+역,독산/NNP/지명+역/NNG/*,Place-station
동대문역,0,0,0,NNP,지명,,동대문역,Compound,*,*,동대문+역,동대문/NNP/지명+역/NNG/*,Place-station
동대신역,0,0,0,NNP,지명,,동대신역,Compound,*,*,동대신+역,동대신/NNP/지명+역/NNG/*,Place-station
동래역,0,0,0,NNP,지명,,동래역,Compound,*,*,동래+역,동래/NNP/지명+역/NNG/*,Place-station
동량역,0,0,0,NNP,지명,,동량역,Compound,*,*,동량+역,동량/NNP/지명+역/NNG/*,Place-station
동막역,0,0,0,NNP,지명,,동막역,Compound,*,*,동막+역,동막/NNP/지명+역/NNG/*,Place-station
동방역,0,0,0,NNP,지명,,동방역,Compound,*,*,동방+역,동방/NNP/지명+역/NNG/*,Place-station
동백역,0,0,0,NNP,지명,,동백역,Compound,*,*,동백+역,동백/NNP/지명+역/NNG/*,Place-station
동산역,0,0,0,NNP,지명,,동산역,Compound,*,*,동산+역,동산/NNP/지명+역/NNG/*,Place-station
동수역,0,0,0,NNP,지명,,동수역,Compound,*,*,동수+역,동수/NNP/지명+역/NNG/*,Place-station
동암역,0,0,0,NNP,지명,,동암역,Compound,*,*,동암+역,동암/NNP/지명+역/NNG/*,Place-station
동오역,0,0,0,NNP,지명,,동오역,Compound,*,*,동오+역,동오/NNP/지명+역/NNG/*,Place-station
동운역,0,0,0,NNP,지명,,동운역,Compound,*,*,동운+역,동운/NNP/지명+역/NNG/*,Place-station
동원역,0,0,0,NNP,지명,,동원역,Compound,*,*,동원+역,동원/NNP/지명+역/NNG/*,Place-station
동작역,0,0,0,NNP,지명,,동작역,Compound,*,*,동작+역,동작/NNP/지명+역/NNG/*,Place-station
동점역,0,0,0,NNP,지명,,동점역,Compound,*,*,동점+역,동점/NNP/지명+역/NNG/*,Place-station
동천역,0,0,0,NNP,지명,,동천역,Compound,*,*,동천+역,동천/NNP/지명+역/NNG/*,Place-station
동촌역,0,0,0,NNP,지명,,동촌역,Compound,*,*,동촌+역,동촌/NNP/지명+역/NNG/*,Place-station
동춘역,0,0,0,NNP,지명,,동춘역,Compound,*,*,동춘+역,동춘/NNP/지명+역/NNG/*,Place-station
동해역,0,0,0,NNP,지명,,동해역,Compound,*,*,동해+역,동해/NNP/지명+역/NNG/*,Place-station
동화역,0,0,0,NNP,지명,,동화역,Compound,*,*,동화+역,동화/NNP/지명+역/NNG/*,Place-station
두류역,0,0,0,NNP,지명,,두류역,Compound,*,*,두류+역,두류/NNP/지명+역/NNG/*,Place-station
두실역,0,0,0,NNP,지명,,두실역,Compound,*,*,두실+역,두실/NNG/*+역/NNG/*,Place-station
두정역,0,0,0,NNP,지명,,두정역,Compound,*,*,두정+역,두정/NNP/지명+역/NNG/*,Place-station
둔전역,0,0,0,NNP,지명,,둔전역,Compound,*,*,둔전+역,둔전/NNP/지명+역/NNG/*,Place-station
득량역,0,0,0,NNP,지명,,득량역,Compound,*,*,득량+역,득량/NNP/지명+역/NNG/*,Place-station
등촌역,0,0,0,NNP,지명,,등촌역,Compound,*,*,등촌+역,등촌/NNP/지명+역/NNG/*,Place-station
뚝섬역,0,0,0,NNP,지명,,뚝섬역,Compound,*,*,뚝섬+역,뚝섬/NNP/지명+역/NNG/*,Place-station
마곡역,0,0,0,NNP,지명,,마곡역,Compound,*,*,마곡+역,마곡/NNP/지명+역/NNG/*,Place-station
마두역,0,0,0,NNP,지명,,마두역,Compound,*,*,마두+역,마두/NNP/지명+역/NNG/*,Place-station
마사역,0,0,0,NNP,지명,,마사역,Compound,*,*,마사+역,마사/NNP/지명+역/NNG/*,Place-station
마산역,0,0,0,NNP,지명,,마산역,Compound,*,*,마산+역,마산/NNP/지명+역/NNG/*,Place-station
마장역,0,0,0,NNP,지명,,마장역,Compound,*,*,마장+역,마장/NNP/지명+역/NNG/*,Place-station
마천역,0,0,0,NNP,지명,,마천역,Compound,*,*,마천+역,마천/NNP/지명+역/NNG/*,Place-station
마포역,0,0,0,NNP,지명,,마포역,Compound,*,*,마포+역,마포/NNP/지명+역/NNG/*,Place-station
만덕역,0,0,0,NNP,지명,,만덕역,Compound,*,*,만덕+역,만덕/NNP/지명+역/NNG/*,Place-station
만성역,0,0,0,NNP,지명,,만성역,Compound,*,*,만성+역,만성/NNP/지명+역/NNG/*,Place-station
만종역,0,0,0,NNP,지명,,만종역,Compound,*,*,만종+역,만종/NNP/지명+역/NNG/*,Place-station
만촌역,0,0,0,NNP,지명,,만촌역,Compound,*,*,만촌+역,만촌/NNP/지명+역/NNG/*,Place-station
만평역,0,0,0,NNP,지명,,만평역,Compound,*,*,만평+역,만평/NNG/*+역/NNG/*,Place-station
망미역,0,0,0,NNP,지명,,망미역,Compound,*,*,망미+역,망미/NNP/지명+역/NNG/*,Place-station
망상역,0,0,0,NNP,지명,,망상역,Compound,*,*,망상+역,망상/NNP/지명+역/NNG/*,Place-station
망우역,0,0,0,NNP,지명,,망우역,Compound,*,*,망우+역,망우/NNP/지명+역/NNG/*,Place-station
망원역,0,0,0,NNP,지명,,망원역,Compound,*,*,망원+역,망원/NNP/지명+역/NNG/*,Place-station
망포역,0,0,0,NNP,지명,,망포역,Compound,*,*,망포+역,망포/NNP/지명+역/NNG/*,Place-station
매곡역,0,0,0,NNP,지명,,매곡역,Compound,*,*,매곡+역,매곡/NNP/지명+역/NNG/*,Place-station
매교역,0,0,0,NNP,지명,,매교역,Compound,*,*,매교+역,매교/NNP/지명+역/NNG/*,Place-station
매봉역,0,0,0,NNP,지명,,매봉역,Compound,*,*,매봉+역,매봉/NNP/지명+역/NNG/*,Place-station
매천역,0,0,0,NNP,지명,,매천역,Compound,*,*,매천+역,매천/NNP/지명+역/NNG/*,Place-station
매포역,0,0,0,NNP,지명,,매포역,Compound,*,*,매포+역,매포/NNP/지명+역/NNG/*,Place-station
면목역,0,0,0,NNP,지명,,면목역,Compound,*,*,면목+역,면목/NNP/지명+역/NNG/*,Place-station
명덕역,0,0,0,NNP,지명,,명덕역,Compound,*,*,명덕+역,명덕/NNP/지명+역/NNG/*,Place-station
명동역,0,0,0,NNP,지명,,명동역,Compound,*,*,명동+역,명동/NNP/지명+역/NNG/*,Place-station
명륜역,0,0,0,NNP,지명,,명륜역,Compound,*,*,명륜+역,명륜/NNP/지명+역/NNG/*,Place-station
명봉역,0,0,0,NNP,지명,,명봉역,Compound,*,*,명봉+역,명봉/NNP/지명+역/NNG/*,Place-station
명일역,0,0,0,NNP,지명,,명일역,Compound,*,*,명일+역,명일/NNP/지명+역/NNG/*,Place-station
명장역,0,0,0,NNP,지명,,명장역,Compound,*,*,명장+역,명장/NNP/지명+역/NNG/*,Place-station
명학역,0,0,0,NNP,지명,,명학역,Compound,*,*,명학+역,명학/NNP/지명+역/NNG/*,Place-station
모라역,0,0,0,NNP,지명,,모라역,Compound,*,*,모라+역,모라/NNP/지명+역/NNG/*,Place-station
모란역,0,0,0,NNP,지명,,모란역,Compound,*,*,모란+역,모란/NNG/*+역/NNG/*,Place-station
모량역,0,0,0,NNP,지명,,모량역,Compound,*,*,모량+역,모량/NNP/지명+역/NNG/*,Place-station
모화역,0,0,0,NNP,지명,,모화역,Compound,*,*,모화+역,모화/NNP/지명+역/NNG/*,Place-station
목동역,0,0,0,NNP,지명,,목동역,Compound,*,*,목동+역,목동/NNP/지명+역/NNG/*,Place-station
목포역,0,0,0,NNP,지명,,목포역,Compound,*,*,목포+역,목포/NNP/지명+역/NNG/*,Place-station
목행역,0,0,0,NNP,지명,,목행역,Compound,*,*,목행+역,목행/NNP/지명+역/NNG/*,Place-station
몽탄역,0,0,0,NNP,지명,,몽탄역,Compound,*,*,몽탄+역,몽탄/NNP/지명+역/NNG/*,Place-station
무릉역,0,0,0,NNP,지명,,무릉역,Compound,*,*,무릉+역,무릉/NNP/지명+역/NNG/*,Place-station
무안역,0,0,0,NNP,지명,,무안역,Compound,*,*,무안+역,무안/NNP/지명+역/NNG/*,Place-station
묵호역,0,0,0,NNP,지명,,묵호역,Compound,*,*,묵호+역,묵호/NNP/지명+역/NNG/*,Place-station
문경역,0,0,0,NNP,지명,,문경역,Compound,*,*,문경+역,문경/NNP/지명+역/NNG/*,Place-station
문곡역,0,0,0,NNP,지명,,문곡역,Compound,*,*,문곡+역,문곡/NNP/지명+역/NNG/*,Place-station
문단역,0,0,0,NNP,지명,,문단역,Compound,*,*,문단+역,문단/NNP/지명+역/NNG/*,Place-station
문래역,0,0,0,NNP,지명,,문래역,Compound,*,*,문래+역,문래/NNP/지명+역/NNG/*,Place-station
문산역,0,0,0,NNP,지명,,문산역,Compound,*,*,문산+역,문산/NNP/지명+역/NNG/*,Place-station
문수역,0,0,0,NNP,지명,,문수역,Compound,*,*,문수+역,문수/NNP/지명+역/NNG/*,Place-station
문전역,0,0,0,NNP,지명,,문전역,Compound,*,*,문전+역,문전/NNG/*+역/NNG/*,Place-station
문정역,0,0,0,NNP,지명,,문정역,Compound,*,*,문정+역,문정/NNP/지명+역/NNG/*,Place-station
문현역,0,0,0,NNP,지명,,문현역,Compound,*,*,문현+역,문현/NNP/지명+역/NNG/*,Place-station
미금역,0,0,0,NNP,지명,,미금역,Compound,*,*,미금+역,미금/NNP/지명+역/NNG/*,Place-station
미남역,0,0,0,NNP,지명,,미남역,Compound,*,*,미남+역,미남/NNP/지명+역/NNG/*,Place-station
미로역,0,0,0,NNP,지명,,미로역,Compound,*,*,미로+역,미로/NNP/지명+역/NNG/*,Place-station
미아역,0,0,0,NNP,지명,,미아역,Compound,*,*,미아+역,미아/NNP/지명+역/NNG/*,Place-station
미전역,0,0,0,NNP,지명,,미전역,Compound,*,*,미전+역,미전/NNP/지명+역/NNG/*,Place-station
미평역,0,0,0,NNP,지명,,미평역,Compound,*,*,미평+역,미평/NNP/지명+역/NNG/*,Place-station
민락역,0,0,0,NNP,지명,,민락역,Compound,*,*,민락+역,민락/NNP/지명+역/NNG/*,Place-station
밀양역,0,0,0,NNP,지명,,밀양역,Compound,*,*,밀양+역,밀양/NNP/지명+역/NNG/*,Place-station
박촌역,0,0,0,NNP,지명,,박촌역,Compound,*,*,박촌+역,박촌/NNP/지명+역/NNG/*,Place-station
반곡역,0,0,0,NNP,지명,,반곡역,Compound,*,*,반곡+역,반곡/NNP/지명+역/NNG/*,Place-station
반석역,0,0,0,NNP,지명,,반석역,Compound,*,*,반석+역,반석/NNP/지명+역/NNG/*,Place-station
반성역,0,0,0,NNP,지명,,반성역,Compound,*,*,반성+역,반성/NNP/지명+역/NNG/*,Place-station
반야월역,0,0,0,NNP,지명,,반야월역,Compound,*,*,반야월+역,반야월/NNP/인명+역/NNG/*,Place-station
반월역,0,0,0,NNP,지명,,반월역,Compound,*,*,반월+역,반월/NNP/지명+역/NNG/*,Place-station
반포역,0,0,0,NNP,지명,,반포역,Compound,*,*,반포+역,반포/NNP/지명+역/NNG/*,Place-station
발산역,0,0,0,NNP,지명,,발산역,Compound,*,*,발산+역,발산/NNP/지명+역/NNG/*,Place-station
방배역,0,0,0,NNP,지명,,방배역,Compound,*,*,방배+역,방배/NNP/지명+역/NNG/*,Place-station
방이역,0,0,0,NNP,지명,,방이역,Compound,*,*,방이+역,방이/NNP/지명+역/NNG/*,Place-station
방촌역,0,0,0,NNP,지명,,방촌역,Compound,*,*,방촌+역,방촌/NNP/지명+역/NNG/*,Place-station
방학역,0,0,0,NNP,지명,,방학역,Compound,*,*,방학+역,방학/NNP/지명+역/NNG/*,Place-station
방화역,0,0,0,NNP,지명,,방화역,Compound,*,*,방화+역,방화/NNP/지명+역/NNG/*,Place-station
배방역,0,0,0,NNP,지명,,배방역,Compound,*,*,배방+역,배방/NNP/지명+역/NNG/*,Place-station
배산역,0,0,0,NNP,지명,,배산역,Compound,*,*,배산+역,배산/NNP/지명+역/NNG/*,Place-station
백마역,0,0,0,NNP,지명,,백마역,Compound,*,*,백마+역,백마/NNG/*+역/NNG/*,Place-station
백산역,0,0,0,NNP,지명,,백산역,Compound,*,*,백산+역,백산/NNP/지명+역/NNG/*,Place-station
백석역,0,0,0,NNP,지명,,백석역,Compound,*,*,백석+역,백석/NNP/지명+역/NNG/*,Place-station
백운역,0,0,0,NNP,지명,,백운역,Compound,*,*,백운+역,백운/NNP/지명+역/NNG/*,Place-station
벌교역,0,0,0,NNP,지명,,벌교역,Compound,*,*,벌교+역,벌교/NNP/지명+역/NNG/*,Place-station
범계역,0,0,0,NNP,지명,,범계역,Compound,*,*,범계+역,범계/NNP/지명+역/NNG/*,Place-station
범골역,0,0,0,NNP,지명,,범골역,Compound,*,*,범골+역,범골/NNG/*+역/NNG/*,Place-station
범물역,0,0,0,NNP,지명,,범물역,Compound,*,*,범물+역,범물/NNP/지명+역/NNG/*,Place-station
범어사역,0,0,0,NNP,지명,,범어사역,Compound,*,*,범어사+역,범어사/NNP/*+역/NNG/*,Place-station
범어역,0,0,0,NNP,지명,,범어역,Compound,*,*,범어+역,범어/NNP/지명+역/NNG/*,Place-station
범일역,0,0,0,NNP,지명,,범일역,Compound,*,*,범일+역,범일/NNP/지명+역/NNG/*,Place-station
법전역,0,0,0,NNP,지명,,법전역,Compound,*,*,법전+역,법전/NNP/지명+역/NNG/*,Place-station
벽제역,0,0,0,NNP,지명,,벽제역,Compound,*,*,벽제+역,벽제/NNP/지명+역/NNG/*,Place-station
병점역,0,0,0,NNP,지명,,병점역,Compound,*,*,병점+역,병점/NNP/지명+역/NNG/*,Place-station
보문역,0,0,0,NNP,지명,,보문역,Compound,*,*,보문+역,보문/NNP/지명+역/NNG/*,Place-station
보산역,0,0,0,NNP,지명,,보산역,Compound,*,*,보산+역,보산/NNP/지명+역/NNG/*,Place-station
보성역,0,0,0,NNP,지명,,보성역,Compound,*,*,보성+역,보성/NNP/지명+역/NNG/*,Place-station
보정역,0,0,0,NNP,지명,,보정역,Compound,*,*,보정+역,보정/NNP/지명+역/NNG/*,Place-station
보천역,0,0,0,NNP,지명,,보천역,Compound,*,*,보천+역,보천/NNP/지명+역/NNG/*,Place-station
복정역,0,0,0,NNP,지명,,복정역,Compound,*,*,복정+역,복정/NNP/지명+역/NNG/*,Place-station
봉덕역,0,0,0,NNP,지명,,봉덕역,Compound,*,*,봉덕+역,봉덕/NNP/지명+역/NNG/*,Place-station
봉림역,0,0,0,NNP,지명,,봉림역,Compound,*,*,봉림+역,봉림/NNP/지명+역/NNG/*,Place-station
봉명역,0,0,0,NNP,지명,,봉명역,Compound,*,*,봉명+역,봉명/NNP/지명+역/NNG/*,Place-station
봉성역,0,0,0,NNP,지명,,봉성역,Compound,*,*,봉성+역,봉성/NNP/지명+역/NNG/*,Place-station
봉양역,0,0,0,NNP,지명,,봉양역,Compound,*,*,봉양+역,봉양/NNP/지명+역/NNG/*,Place-station
봉정역,0,0,0,NNP,지명,,봉정역,Compound,*,*,봉정+역,봉정/NNP/지명+역/NNG/*,Place-station
봉천역,0,0,0,NNP,지명,,봉천역,Compound,*,*,봉천+역,봉천/NNP/지명+역/NNG/*,Place-station
봉화역,0,0,0,NNP,지명,,봉화역,Compound,*,*,봉화+역,봉화/NNP/지명+역/NNG/*,Place-station
봉황역,0,0,0,NNP,지명,,봉황역,Compound,*,*,봉황+역,봉황/NNP/지명+역/NNG/*,Place-station
부강역,0,0,0,NNP,지명,,부강역,Compound,*,*,부강+역,부강/NNP/지명+역/NNG/*,Place-station
부개역,0,0,0,NNP,지명,,부개역,Compound,*,*,부개+역,부개/NNP/지명+역/NNG/*,Place-station
부산역,0,0,0,NNP,지명,,부산역,Compound,*,*,부산+역,부산/NNP/지명+역/NNG/*,Place-station
부산진역,0,0,0,NNP,지명,,부산진역,Compound,*,*,부산진+역,부산진/NNP/지명+역/NNG/*,Place-station
부암역,0,0,0,NNP,지명,,부암역,Compound,*,*,부암+역,부암/NNP/지명+역/NNG/*,Place-station
부용역,0,0,0,NNP,지명,,부용역,Compound,*,*,부용+역,부용/NNP/지명+역/NNG/*,Place-station
부원역,0,0,0,NNP,지명,,부원역,Compound,*,*,부원+역,부원/NNP/지명+역/NNG/*,Place-station
부전역,0,0,0,NNP,지명,,부전역,Compound,*,*,부전+역,부전/NNP/지명+역/NNG/*,Place-station
부조역,0,0,0,NNP,지명,,부조역,Compound,*,*,부조+역,부조/NNG/*+역/NNG/*,Place-station
부천역,0,0,0,NNP,지명,,부천역,Compound,*,*,부천+역,부천/NNP/지명+역/NNG/*,Place-station
부평역,0,0,0,NNP,지명,,부평역,Compound,*,*,부평+역,부평/NNP/지명+역/NNG/*,Place-station
부황역,0,0,0,NNP,지명,,부황역,Compound,*,*,부황+역,부황/NNP/지명+역/NNG/*,Place-station
북천역,0,0,0,NNP,지명,,북천역,Compound,*,*,북천+역,북천/NNP/지명+역/NNG/*,Place-station
분천역,0,0,0,NNP,지명,,분천역,Compound,*,*,분천+역,분천/NNP/지명+역/NNG/*,Place-station
불광역,0,0,0,NNP,지명,,불광역,Compound,*,*,불광+역,불광/NNP/지명+역/NNG/*,Place-station
불국사역,0,0,0,NNP,지명,,불국사역,Compound,*,*,불국사+역,불국사/NNP/*+역/NNG/*,Place-station
불암역,0,0,0,NNP,지명,,불암역,Compound,*,*,불암+역,불암/NNP/지명+역/NNG/*,Place-station
비봉역,0,0,0,NNP,지명,,비봉역,Compound,*,*,비봉+역,비봉/NNP/지명+역/NNG/*,Place-station
사가정역,0,0,0,NNP,지명,,사가정역,Compound,*,*,사가정+역,사가정/NNP/인명+역/NNG/*,Place-station
사곡역,0,0,0,NNP,지명,,사곡역,Compound,*,*,사곡+역,사곡/NNP/지명+역/NNG/*,Place-station
사당역,0,0,0,NNP,지명,,사당역,Compound,*,*,사당+역,사당/NNP/지명+역/NNG/*,Place-station
사릉역,0,0,0,NNP,지명,,사릉역,Compound,*,*,사릉+역,사릉/NNG/*+역/NNG/*,Place-station
사방역,0,0,0,NNP,지명,,사방역,Compound,*,*,사방+역,사방/NNP/지명+역/NNG/*,Place-station
사북역,0,0,0,NNP,지명,,사북역,Compound,*,*,사북+역,사북/NNP/지명+역/NNG/*,Place-station
사상역,0,0,0,NNP,지명,,사상역,Compound,*,*,사상+역,사상/NNP/지명+역/NNG/*,Place-station
사월역,0,0,0,NNP,지명,,사월역,Compound,*,*,사월+역,사월/NNP/지명+역/NNG/*,Place-station
사직역,0,0,0,NNP,지명,,사직역,Compound,*,*,사직+역,사직/NNP/지명+역/NNG/*,Place-station
사평역,0,0,0,NNP,지명,,사평역,Compound,*,*,사평+역,사평/NNP/지명+역/NNG/*,Place-station
사하역,0,0,0,NNP,지명,,사하역,Compound,*,*,사하+역,사하/NNP/지명+역/NNG/*,Place-station
산본역,0,0,0,NNP,지명,,산본역,Compound,*,*,산본+역,산본/NNP/지명+역/NNG/*,Place-station
산성역,0,0,0,NNP,지명,,산성역,Compound,*,*,산성+역,산성/NNP/지명+역/NNG/*,Place-station
삼가역,0,0,0,NNP,지명,,삼가역,Compound,*,*,삼가+역,삼가/NNP/지명+역/NNG/*,Place-station
삼곡역,0,0,0,NNP,지명,,삼곡역,Compound,*,*,삼곡+역,삼곡/NNP/지명+역/NNG/*,Place-station
삼례역,0,0,0,NNP,지명,,삼례역,Compound,*,*,삼례+역,삼례/NNP/지명+역/NNG/*,Place-station
삼릉역,0,0,0,NNP,지명,,삼릉역,Compound,*,*,삼릉+역,삼릉/NNG/*+역/NNG/*,Place-station
삼산역,0,0,0,NNP,지명,,삼산역,Compound,*,*,삼산+역,삼산/NNP/지명+역/NNG/*,Place-station
삼성역,0,0,0,NNP,지명,,삼성역,Compound,*,*,삼성+역,삼성/NNP/지명+역/NNG/*,Place-station
삼송역,0,0,0,NNP,지명,,삼송역,Compound,*,*,삼송+역,삼송/NNP/지명+역/NNG/*,Place-station
삼척역,0,0,0,NNP,지명,,삼척역,Compound,*,*,삼척+역,삼척/NNP/지명+역/NNG/*,Place-station
삼탄역,0,0,0,NNP,지명,,삼탄역,Compound,*,*,삼탄+역,삼탄/NNG/*+역/NNG/*,Place-station
삼화역,0,0,0,NNP,지명,,삼화역,Compound,*,*,삼화+역,삼화/NNP/지명+역/NNG/*,Place-station
삽교역,0,0,0,NNP,지명,,삽교역,Compound,*,*,삽교+역,삽교/NNP/지명+역/NNG/*,Place-station
상갈역,0,0,0,NNP,지명,,상갈역,Compound,*,*,상갈+역,상갈/NNP/지명+역/NNG/*,Place-station
상계역,0,0,0,NNP,지명,,상계역,Compound,*,*,상계+역,상계/NNP/지명+역/NNG/*,Place-station
상도역,0,0,0,NNP,지명,,상도역,Compound,*,*,상도+역,상도/NNP/지명+역/NNG/*,Place-station
상동역,0,0,0,NNP,지명,,상동역,Compound,*,*,상동+역,상동/NNP/지명+역/NNG/*,Place-station
상무역,0,0,0,NNP,지명,,상무역,Compound,*,*,상무+역,상무/NNP/지명+역/NNG/*,Place-station
상봉역,0,0,0,NNP,지명,,상봉역,Compound,*,*,상봉+역,상봉/NNP/지명+역/NNG/*,Place-station
상수역,0,0,0,NNP,지명,,상수역,Compound,*,*,상수+역,상수/NNP/지명+역/NNG/*,Place-station
상왕십리역,0,0,0,NNP,지명,,상왕십리역,Compound,*,*,상왕십리+역,상왕십리/NNP/지명+역/NNG/*,Place-station
상월곡역,0,0,0,NNP,지명,,상월곡역,Compound,*,*,상월곡+역,상월곡/NNP/지명+역/NNG/*,Place-station
상인역,0,0,0,NNP,지명,,상인역,Compound,*,*,상인+역,상인/NNP/지명+역/NNG/*,Place-station
상정역,0,0,0,NNP,지명,,상정역,Compound,*,*,상정+역,상정/NNP/지명+역/NNG/*,Place-station
상주역,0,0,0,NNP,지명,,상주역,Compound,*,*,상주+역,상주/NNP/지명+역/NNG/*,Place-station
상천역,0,0,0,NNP,지명,,상천역,Compound,*,*,상천+역,상천/NNP/지명+역/NNG/*,Place-station
서경주역,0,0,0,NNP,지명,,서경주역,Compound,*,*,서경주+역,서경주/NNP/인명+역/NNG/*,Place-station
서광주역,0,0,0,NNP,지명,,서광주역,Compound,*,*,서광주+역,서광주/NNP/인명+역/NNG/*,Place-station
서대문역,0,0,0,NNP,지명,,서대문역,Compound,*,*,서대문+역,서대문/NNP/지명+역/NNG/*,Place-station
서대신역,0,0,0,NNP,지명,,서대신역,Compound,*,*,서대신+역,서대신/NNP/지명+역/NNG/*,Place-station
서도역,0,0,0,NNP,지명,,서도역,Compound,*,*,서도+역,서도/NNP/지명+역/NNG/*,Place-station
서동역,0,0,0,NNP,지명,,서동역,Compound,*,*,서동+역,서동/NNP/지명+역/NNG/*,Place-station
서면역,0,0,0,NNP,지명,,서면역,Compound,*,*,서면+역,서면/NNP/지명+역/NNG/*,Place-station
서생역,0,0,0,NNP,지명,,서생역,Compound,*,*,서생+역,서생/NNP/지명+역/NNG/*,Place-station
서울역,0,0,0,NNP,지명,,서울역,Compound,*,*,서울+역,서울/NNP/지명+역/NNG/*,Place-station
서지역,0,0,0,NNP,지명,,서지역,Compound,*,*,서지+역,서지/NNP/지명+역/NNG/*,Place-station
서창역,0,0,0,NNP,지명,,서창역,Compound,*,*,서창+역,서창/NNP/지명+역/NNG/*,Place-station
서천역,0,0,0,NNP,지명,,서천역,Compound,*,*,서천+역,서천/NNP/지명+역/NNG/*,Place-station
서초역,0,0,0,NNP,지명,,서초역,Compound,*,*,서초+역,서초/NNP/지명+역/NNG/*,Place-station
서현역,0,0,0,NNP,지명,,서현역,Compound,*,*,서현+역,서현/NNP/지명+역/NNG/*,Place-station
석계역,0,0,0,NNP,지명,,석계역,Compound,*,*,석계+역,석계/NNP/지명+역/NNG/*,Place-station
석대역,0,0,0,NNP,지명,,석대역,Compound,*,*,석대+역,석대/NNP/지명+역/NNG/*,Place-station
석불역,0,0,0,NNP,지명,,석불역,Compound,*,*,석불+역,석불/NNG/*+역/NNG/*,Place-station
석수역,0,0,0,NNP,지명,,석수역,Compound,*,*,석수+역,석수/NNP/지명+역/NNG/*,Place-station
석촌역,0,0,0,NNP,지명,,석촌역,Compound,*,*,석촌+역,석촌/NNP/지명+역/NNG/*,Place-station
석포역,0,0,0,NNP,지명,,석포역,Compound,*,*,석포+역,석포/NNP/지명+역/NNG/*,Place-station
석항역,0,0,0,NNP,지명,,석항역,Compound,*,*,석항+역,석항/NNP/지명+역/NNG/*,Place-station
선릉역,0,0,0,NNP,지명,,선릉역,Compound,*,*,선릉+역,선릉/NNG/*+역/NNG/*,Place-station
선암역,0,0,0,NNP,지명,,선암역,Compound,*,*,선암+역,선암/NNP/지명+역/NNG/*,Place-station
선평역,0,0,0,NNP,지명,,선평역,Compound,*,*,선평+역,선평/NNP/지명+역/NNG/*,Place-station
선학역,0,0,0,NNP,지명,,선학역,Compound,*,*,선학+역,선학/NNP/지명+역/NNG/*,Place-station
성산역,0,0,0,NNP,지명,,성산역,Compound,*,*,성산+역,성산/NNP/지명+역/NNG/*,Place-station
성수역,0,0,0,NNP,지명,,성수역,Compound,*,*,성수+역,성수/NNP/지명+역/NNG/*,Place-station
성환역,0,0,0,NNP,지명,,성환역,Compound,*,*,성환+역,성환/NNP/지명+역/NNG/*,Place-station
세류역,0,0,0,NNP,지명,,세류역,Compound,*,*,세류+역,세류/NNP/지명+역/NNG/*,Place-station
세마역,0,0,0,NNP,지명,,세마역,Compound,*,*,세마+역,세마/NNG/*+역/NNG/*,Place-station
세천역,0,0,0,NNP,지명,,세천역,Compound,*,*,세천+역,세천/NNP/지명+역/NNG/*,Place-station
소사역,0,0,0,NNP,지명,,소사역,Compound,*,*,소사+역,소사/NNP/지명+역/NNG/*,Place-station
소이역,0,0,0,NNP,지명,,소이역,Compound,*,*,소이+역,소이/NNP/지명+역/NNG/*,Place-station
소태역,0,0,0,NNP,지명,,소태역,Compound,*,*,소태+역,소태/NNP/지명+역/NNG/*,Place-station
송내역,0,0,0,NNP,지명,,송내역,Compound,*,*,송내+역,송내/NNP/지명+역/NNG/*,Place-station
송도역,0,0,0,NNP,지명,,송도역,Compound,*,*,송도+역,송도/NNP/지명+역/NNG/*,Place-station
송산역,0,0,0,NNP,지명,,송산역,Compound,*,*,송산+역,송산/NNP/지명+역/NNG/*,Place-station
송정역,0,0,0,NNP,지명,,송정역,Compound,*,*,송정+역,송정/NNP/지명+역/NNG/*,Place-station
송천역,0,0,0,NNP,지명,,송천역,Compound,*,*,송천+역,송천/NNP/지명+역/NNG/*,Place-station
송추역,0,0,0,NNP,지명,,송추역,Compound,*,*,송추+역,송추/NNG/*+역/NNG/*,Place-station
송탄역,0,0,0,NNP,지명,,송탄역,Compound,*,*,송탄+역,송탄/NNP/지명+역/NNG/*,Place-station
송파역,0,0,0,NNP,지명,,송파역,Compound,*,*,송파+역,송파/NNP/지명+역/NNG/*,Place-station
송포역,0,0,0,NNP,지명,,송포역,Compound,*,*,송포+역,송포/NNP/지명+역/NNG/*,Place-station
송학역,0,0,0,NNP,지명,,송학역,Compound,*,*,송학+역,송학/NNP/지명+역/NNG/*,Place-station
송현역,0,0,0,NNP,지명,,송현역,Compound,*,*,송현+역,송현/NNP/지명+역/NNG/*,Place-station
수내역,0,0,0,NNP,지명,,수내역,Compound,*,*,수내+역,수내/NNP/지명+역/NNG/*,Place-station
수리산역,0,0,0,NNP,지명,,수리산역,Compound,*,*,수리+산+역,수리/NNP/지명+산/NNG/*+역/NNG/*,Place-station
수색역,0,0,0,NNP,지명,,수색역,Compound,*,*,수색+역,수색/NNP/지명+역/NNG/*,Place-station
수서역,0,0,0,NNP,지명,,수서역,Compound,*,*,수서+역,수서/NNP/지명+역/NNG/*,Place-station
수안역,0,0,0,NNP,지명,,수안역,Compound,*,*,수안+역,수안/NNP/지명+역/NNG/*,Place-station
수영역,0,0,0,NNP,지명,,수영역,Compound,*,*,수영+역,수영/NNP/지명+역/NNG/*,Place-station
수원역,0,0,0,NNP,지명,,수원역,Compound,*,*,수원+역,수원/NNP/지명+역/NNG/*,Place-station
수유역,0,0,0,NNP,지명,,수유역,Compound,*,*,수유+역,수유/NNP/지명+역/NNG/*,Place-station
수정역,0,0,0,NNP,지명,,수정역,Compound,*,*,수정+역,수정/NNP/지명+역/NNG/*,Place-station
수진역,0,0,0,NNP,지명,,수진역,Compound,*,*,수진+역,수진/NNP/지명+역/NNG/*,Place-station
순천역,0,0,0,NNP,지명,,순천역,Compound,*,*,순천+역,순천/NNP/지명+역/NNG/*,Place-station
승문역,0,0,0,NNP,지명,,승문역,Compound,*,*,승문+역,승문/NNP/지명+역/NNG/*,Place-station
승부역,0,0,0,NNP,지명,,승부역,Compound,*,*,승부+역,승부/NNP/지명+역/NNG/*,Place-station
시청역,0,0,0,NNP,지명,,시청역,Compound,*,*,시청+역,시청/NNG/*+역/NNG/*,Place-station
신갈역,0,0,0,NNP,지명,,신갈역,Compound,*,*,신갈+역,신갈/NNP/지명+역/NNG/*,Place-station
신거역,0,0,0,NNP,지명,,신거역,Compound,*,*,신거+역,신거/NNG/*+역/NNG/*,Place-station
신경주역,0,0,0,NNP,지명,,신경주역,Compound,*,*,신경주+역,신경주/NNP/인명+역/NNG/*,Place-station
신금호역,0,0,0,NNP,지명,,신금호역,Compound,*,*,신금호+역,신금호/NNP/인명+역/NNG/*,Place-station
신기역,0,0,0,NNP,지명,,신기역,Compound,*,*,신기+역,신기/NNP/지명+역/NNG/*,Place-station
신길역,0,0,0,NNP,지명,,신길역,Compound,*,*,신길+역,신길/NNP/지명+역/NNG/*,Place-station
신남역,0,0,0,NNP,지명,,신남역,Compound,*,*,신남+역,신남/NNP/지명+역/NNG/*,Place-station
신내역,0,0,0,NNP,지명,,신내역,Compound,*,*,신내+역,신내/NNP/지명+역/NNG/*,Place-station
신녕역,0,0,0,NNP,지명,,신녕역,Compound,*,*,신녕+역,신녕/NNP/지명+역/NNG/*,Place-station
신답역,0,0,0,NNP,지명,,신답역,Compound,*,*,신답+역,신답/NNP/지명+역/NNG/*,Place-station
신대방역,0,0,0,NNP,지명,,신대방역,Compound,*,*,신대방+역,신대방/NNP/지명+역/NNG/*,Place-station
신도림역,0,0,0,NNP,지명,,신도림역,Compound,*,*,신도림+역,신도림/NNP/지명+역/NNG/*,Place-station
신동역,0,0,0,NNP,지명,,신동역,Compound,*,*,신동+역,신동/NNP/지명+역/NNG/*,Place-station
신례원역,0,0,0,NNP,지명,,신례원역,Compound,*,*,신례원+역,신례원/NNP/지명+역/NNG/*,Place-station
신리역,0,0,0,NNP,지명,,신리역,Compound,*,*,신리+역,신리/NNP/지명+역/NNG/*,Place-station
신림역,0,0,0,NNP,지명,,신림역,Compound,*,*,신림+역,신림/NNP/지명+역/NNG/*,Place-station
신매역,0,0,0,NNP,지명,,신매역,Compound,*,*,신매+역,신매/NNP/지명+역/NNG/*,Place-station
신사역,0,0,0,NNP,지명,,신사역,Compound,*,*,신사+역,신사/NNP/지명+역/NNG/*,Place-station
신성역,0,0,0,NNP,지명,,신성역,Compound,*,*,신성+역,신성/NNP/지명+역/NNG/*,Place-station
신암역,0,0,0,NNP,지명,,신암역,Compound,*,*,신암+역,신암/NNP/지명+역/NNG/*,Place-station
신원역,0,0,0,NNP,지명,,신원역,Compound,*,*,신원+역,신원/NNP/지명+역/NNG/*,Place-station
신정역,0,0,0,NNP,지명,,신정역,Compound,*,*,신정+역,신정/NNP/지명+역/NNG/*,Place-station
신창역,0,0,0,NNP,지명,,신창역,Compound,*,*,신창+역,신창/NNP/지명+역/NNG/*,Place-station
신창원역,0,0,0,NNP,지명,,신창원역,Compound,*,*,신창원+역,신창원/NNP/인명+역/NNG/*,Place-station
신천역,0,0,0,NNP,지명,,신천역,Compound,*,*,신천+역,신천/NNP/지명+역/NNG/*,Place-station
신촌역,0,0,0,NNP,지명,,신촌역,Compound,*,*,신촌+역,신촌/NNP/지명+역/NNG/*,Place-station
신탄진역,0,0,0,NNP,지명,,신탄진역,Compound,*,*,신탄진+역,신탄진/NNP/지명+역/NNG/*,Place-station
신태인역,0,0,0,NNP,지명,,신태인역,Compound,*,*,신태인+역,신태인/NNP/지명+역/NNG/*,Place-station
신평역,0,0,0,NNP,지명,,신평역,Compound,*,*,신평+역,신평/NNP/지명+역/NNG/*,Place-station
신풍역,0,0,0,NNP,지명,,신풍역,Compound,*,*,신풍+역,신풍/NNP/지명+역/NNG/*,Place-station
신흥역,0,0,0,NNP,지명,,신흥역,Compound,*,*,신흥+역,신흥/NNP/지명+역/NNG/*,Place-station
심천역,0,0,0,NNP,지명,,심천역,Compound,*,*,심천+역,심천/NNP/지명+역/NNG/*,Place-station
쌍룡역,0,0,0,NNP,지명,,쌍룡역,Compound,*,*,쌍룡+역,쌍룡/NNP/지명+역/NNG/*,Place-station
쌍문역,0,0,0,NNP,지명,,쌍문역,Compound,*,*,쌍문+역,쌍문/NNP/지명+역/NNG/*,Place-station
쌍용역,0,0,0,NNP,지명,,쌍용역,Compound,*,*,쌍용+역,쌍용/NNP/지명+역/NNG/*,Place-station
쌍촌역,0,0,0,NNP,지명,,쌍촌역,Compound,*,*,쌍촌+역,쌍촌/NNP/지명+역/NNG/*,Place-station
아산역,0,0,0,NNP,지명,,아산역,Compound,*,*,아산+역,아산/NNP/지명+역/NNG/*,Place-station
아신역,0,0,0,NNP,지명,,아신역,Compound,*,*,아신+역,아신/NNP/지명+역/NNG/*,Place-station
아우라지역,0,0,0,NNP,지명,,아우라지역,Compound,*,*,아우라지+역,아우라지/NNG/*+역/NNG/*,Place-station
아중역,0,0,0,NNP,지명,,아중역,Compound,*,*,아중+역,아중/NNG/*+역/NNG/*,Place-station
아차산역,0,0,0,NNP,지명,,아차산역,Compound,*,*,아차+산+역,아차/NNG/*+산/NNG/*+역/NNG/*,Place-station
아포역,0,0,0,NNP,지명,,아포역,Compound,*,*,아포+역,아포/NNP/지명+역/NNG/*,Place-station
아현역,0,0,0,NNP,지명,,아현역,Compound,*,*,아현+역,아현/NNP/지명+역/NNG/*,Place-station
아화역,0,0,0,NNP,지명,,아화역,Compound,*,*,아화+역,아화/NNP/지명+역/NNG/*,Place-station
안강역,0,0,0,NNP,지명,,안강역,Compound,*,*,안강+역,안강/NNP/지명+역/NNG/*,Place-station
안국역,0,0,0,NNP,지명,,안국역,Compound,*,*,안국+역,안국/NNP/지명+역/NNG/*,Place-station
안동역,0,0,0,NNP,지명,,안동역,Compound,*,*,안동+역,안동/NNP/지명+역/NNG/*,Place-station
안락역,0,0,0,NNP,지명,,안락역,Compound,*,*,안락+역,안락/NNP/지명+역/NNG/*,Place-station
안산역,0,0,0,NNP,지명,,안산역,Compound,*,*,안산+역,안산/NNP/지명+역/NNG/*,Place-station
안심역,0,0,0,NNP,지명,,안심역,Compound,*,*,안심+역,안심/NNP/지명+역/NNG/*,Place-station
안양역,0,0,0,NNP,지명,,안양역,Compound,*,*,안양+역,안양/NNP/지명+역/NNG/*,Place-station
안인역,0,0,0,NNP,지명,,안인역,Compound,*,*,안인+역,안인/NNP/지명+역/NNG/*,Place-station
안정역,0,0,0,NNP,지명,,안정역,Compound,*,*,안정+역,안정/NNP/지명+역/NNG/*,Place-station
안평역,0,0,0,NNP,지명,,안평역,Compound,*,*,안평+역,안평/NNP/지명+역/NNG/*,Place-station
암사역,0,0,0,NNP,지명,,암사역,Compound,*,*,암사+역,암사/NNP/지명+역/NNG/*,Place-station
압구정역,0,0,0,NNP,지명,,압구정역,Compound,*,*,압구정+역,압구정/NNP/지명+역/NNG/*,Place-station
압록역,0,0,0,NNP,지명,,압록역,Compound,*,*,압록+역,압록/NNP/지명+역/NNG/*,Place-station
애오개역,0,0,0,NNP,지명,,애오개역,Compound,*,*,애오개+역,애오개/NNP/지명+역/NNG/*,Place-station
야탑역,0,0,0,NNP,지명,,야탑역,Compound,*,*,야탑+역,야탑/NNP/지명+역/NNG/*,Place-station
약목역,0,0,0,NNP,지명,,약목역,Compound,*,*,약목+역,약목/NNP/지명+역/NNG/*,Place-station
약수역,0,0,0,NNP,지명,,약수역,Compound,*,*,약수+역,약수/NNP/지명+역/NNG/*,Place-station
양동역,0,0,0,NNP,지명,,양동역,Compound,*,*,양동+역,양동/NNP/지명+역/NNG/*,Place-station
양보역,0,0,0,NNP,지명,,양보역,Compound,*,*,양보+역,양보/NNP/지명+역/NNG/*,Place-station
양산역,0,0,0,NNP,지명,,양산역,Compound,*,*,양산+역,양산/NNP/지명+역/NNG/*,Place-station
양수역,0,0,0,NNP,지명,,양수역,Compound,*,*,양수+역,양수/NNP/지명+역/NNG/*,Place-station
양원역,0,0,0,NNP,지명,,양원역,Compound,*,*,양원+역,양원/NNP/지명+역/NNG/*,Place-station
양재역,0,0,0,NNP,지명,,양재역,Compound,*,*,양재+역,양재/NNP/지명+역/NNG/*,Place-station
양정역,0,0,0,NNP,지명,,양정역,Compound,*,*,양정+역,양정/NNP/지명+역/NNG/*,Place-station
양주역,0,0,0,NNP,지명,,양주역,Compound,*,*,양주+역,양주/NNP/지명+역/NNG/*,Place-station
양평역,0,0,0,NNP,지명,,양평역,Compound,*,*,양평+역,양평/NNP/지명+역/NNG/*,Place-station
어룡역,0,0,0,NNP,지명,,어룡역,Compound,*,*,어룡+역,어룡/NNP/지명+역/NNG/*,Place-station
어정역,0,0,0,NNP,지명,,어정역,Compound,*,*,어정+역,어정/NNG/*+역/NNG/*,Place-station
여수역,0,0,0,NNP,지명,,여수역,Compound,*,*,여수+역,여수/NNP/지명+역/NNG/*,Place-station
여의도역,0,0,0,NNP,지명,,여의도역,Compound,*,*,여의도+역,여의도/NNP/지명+역/NNG/*,Place-station
여천역,0,0,0,NNP,지명,,여천역,Compound,*,*,여천+역,여천/NNP/지명+역/NNG/*,Place-station
역곡역,0,0,0,NNP,지명,,역곡역,Compound,*,*,역곡+역,역곡/NNP/지명+역/NNG/*,Place-station
역삼역,0,0,0,NNP,지명,,역삼역,Compound,*,*,역삼+역,역삼/NNP/지명+역/NNG/*,Place-station
역촌역,0,0,0,NNP,지명,,역촌역,Compound,*,*,역촌+역,역촌/NNP/지명+역/NNG/*,Place-station
연교역,0,0,0,NNP,지명,,연교역,Compound,*,*,연교+역,연교/NNP/지명+역/NNG/*,Place-station
연당역,0,0,0,NNP,지명,,연당역,Compound,*,*,연당+역,연당/NNP/지명+역/NNG/*,Place-station
연산역,0,0,0,NNP,지명,,연산역,Compound,*,*,연산+역,연산/NNP/지명+역/NNG/*,Place-station
연수역,0,0,0,NNP,지명,,연수역,Compound,*,*,연수+역,연수/NNP/지명+역/NNG/*,Place-station
연천역,0,0,0,NNP,지명,,연천역,Compound,*,*,연천+역,연천/NNP/지명+역/NNG/*,Place-station
연하역,0,0,0,NNP,지명,,연하역,Compound,*,*,연하+역,연하/NNP/지명+역/NNG/*,Place-station
연호역,0,0,0,NNP,지명,,연호역,Compound,*,*,연호+역,연호/NNP/지명+역/NNG/*,Place-station
연화역,0,0,0,NNP,지명,,연화역,Compound,*,*,연화+역,연화/NNP/지명+역/NNG/*,Place-station
염창역,0,0,0,NNP,지명,,염창역,Compound,*,*,염창+역,염창/NNP/지명+역/NNG/*,Place-station
영동역,0,0,0,NNP,지명,,영동역,Compound,*,*,영동+역,영동/NNP/지명+역/NNG/*,Place-station
영등포역,0,0,0,NNP,지명,,영등포역,Compound,*,*,영등포+역,영등포/NNP/지명+역/NNG/*,Place-station
영월역,0,0,0,NNP,지명,,영월역,Compound,*,*,영월+역,영월/NNP/지명+역/NNG/*,Place-station
영주역,0,0,0,NNP,지명,,영주역,Compound,*,*,영주+역,영주/NNP/지명+역/NNG/*,Place-station
영천역,0,0,0,NNP,지명,,영천역,Compound,*,*,영천+역,영천/NNP/지명+역/NNG/*,Place-station
영통역,0,0,0,NNP,지명,,영통역,Compound,*,*,영통+역,영통/NNP/지명+역/NNG/*,Place-station
예당역,0,0,0,NNP,지명,,예당역,Compound,*,*,예당+역,예당/NNP/지명+역/NNG/*,Place-station
예미역,0,0,0,NNP,지명,,예미역,Compound,*,*,예미+역,예미/NNP/지명+역/NNG/*,Place-station
예천역,0,0,0,NNP,지명,,예천역,Compound,*,*,예천+역,예천/NNP/지명+역/NNG/*,Place-station
오가역,0,0,0,NNP,지명,,오가역,Compound,*,*,오가+역,오가/NNP/지명+역/NNG/*,Place-station
오금역,0,0,0,NNP,지명,,오금역,Compound,*,*,오금+역,오금/NNP/지명+역/NNG/*,Place-station
오룡역,0,0,0,NNP,지명,,오룡역,Compound,*,*,오룡+역,오룡/NNP/지명+역/NNG/*,Place-station
오리역,0,0,0,NNP,지명,,오리역,Compound,*,*,오리+역,오리/NNP/지명+역/NNG/*,Place-station
오봉역,0,0,0,NNP,지명,,오봉역,Compound,*,*,오봉+역,오봉/NNP/지명+역/NNG/*,Place-station
오산역,0,0,0,NNP,지명,,오산역,Compound,*,*,오산+역,오산/NNP/지명+역/NNG/*,Place-station
오송역,0,0,0,NNP,지명,,오송역,Compound,*,*,오송+역,오송/NNP/지명+역/NNG/*,Place-station
오수역,0,0,0,NNP,지명,,오수역,Compound,*,*,오수+역,오수/NNP/지명+역/NNG/*,Place-station
옥계역,0,0,0,NNP,지명,,옥계역,Compound,*,*,옥계+역,옥계/NNP/지명+역/NNG/*,Place-station
옥곡역,0,0,0,NNP,지명,,옥곡역,Compound,*,*,옥곡+역,옥곡/NNP/지명+역/NNG/*,Place-station
옥구역,0,0,0,NNP,지명,,옥구역,Compound,*,*,옥구+역,옥구/NNP/지명+역/NNG/*,Place-station
옥산역,0,0,0,NNP,지명,,옥산역,Compound,*,*,옥산+역,옥산/NNP/지명+역/NNG/*,Place-station
옥수역,0,0,0,NNP,지명,,옥수역,Compound,*,*,옥수+역,옥수/NNP/지명+역/NNG/*,Place-station
옥천역,0,0,0,NNP,지명,,옥천역,Compound,*,*,옥천+역,옥천/NNP/지명+역/NNG/*,Place-station
온릉역,0,0,0,NNP,지명,,온릉역,Compound,*,*,온릉+역,온릉/NNG/*+역/NNG/*,Place-station
온산역,0,0,0,NNP,지명,,온산역,Compound,*,*,온산+역,온산/NNP/지명+역/NNG/*,Place-station
온수역,0,0,0,NNP,지명,,온수역,Compound,*,*,온수+역,온수/NNP/지명+역/NNG/*,Place-station
옹정역,0,0,0,NNP,지명,,옹정역,Compound,*,*,옹정+역,옹정/NNP/지명+역/NNG/*,Place-station
옹천역,0,0,0,NNP,지명,,옹천역,Compound,*,*,옹천+역,옹천/NNP/지명+역/NNG/*,Place-station
와룡역,0,0,0,NNP,지명,,와룡역,Compound,*,*,와룡+역,와룡/NNP/지명+역/NNG/*,Place-station
완사역,0,0,0,NNP,지명,,완사역,Compound,*,*,완사+역,완사/NNG/*+역/NNG/*,Place-station
왜관역,0,0,0,NNP,지명,,왜관역,Compound,*,*,왜관+역,왜관/NNP/지명+역/NNG/*,Place-station
용계역,0,0,0,NNP,지명,,용계역,Compound,*,*,용계+역,용계/NNP/지명+역/NNG/*,Place-station
용궁역,0,0,0,NNP,지명,,용궁역,Compound,*,*,용궁+역,용궁/NNP/지명+역/NNG/*,Place-station
용답역,0,0,0,NNP,지명,,용답역,Compound,*,*,용답+역,용답/NNP/지명+역/NNG/*,Place-station
용동역,0,0,0,NNP,지명,,용동역,Compound,*,*,용동+역,용동/NNP/지명+역/NNG/*,Place-station
용두역,0,0,0,NNP,지명,,용두역,Compound,*,*,용두+역,용두/NNP/지명+역/NNG/*,Place-station
용마산역,0,0,0,NNP,지명,,용마산역,Compound,*,*,용마+산+역,용마/NNP/지명+산/NNG/*+역/NNG/*,Place-station
용문역,0,0,0,NNP,지명,,용문역,Compound,*,*,용문+역,용문/NNP/지명+역/NNG/*,Place-station
용산역,0,0,0,NNP,지명,,용산역,Compound,*,*,용산+역,용산/NNP/지명+역/NNG/*,Place-station
용지역,0,0,0,NNP,지명,,용지역,Compound,*,*,용지+역,용지/NNP/지명+역/NNG/*,Place-station
우보역,0,0,0,NNP,지명,,우보역,Compound,*,*,우보+역,우보/NNP/지명+역/NNG/*,Place-station
우암역,0,0,0,NNP,지명,,우암역,Compound,*,*,우암+역,우암/NNP/지명+역/NNG/*,Place-station
우일역,0,0,0,NNP,지명,,우일역,Compound,*,*,우일+역,우일/NNP/지명+역/NNG/*,Place-station
우장산역,0,0,0,NNP,지명,,우장산역,Compound,*,*,우장+산+역,우장/NNP/지명+산/NNG/*+역/NNG/*,Place-station
운길산역,0,0,0,NNP,지명,,운길산역,Compound,*,*,운길+산+역,운길/NNG/*+산/NNG/*+역/NNG/*,Place-station
운산역,0,0,0,NNP,지명,,운산역,Compound,*,*,운산+역,운산/NNP/지명+역/NNG/*,Place-station
운서역,0,0,0,NNP,지명,,운서역,Compound,*,*,운서+역,운서/NNP/지명+역/NNG/*,Place-station
운정역,0,0,0,NNP,지명,,운정역,Compound,*,*,운정+역,운정/NNP/지명+역/NNG/*,Place-station
운천역,0,0,0,NNP,지명,,운천역,Compound,*,*,운천+역,운천/NNP/지명+역/NNG/*,Place-station
울산역,0,0,0,NNP,지명,,울산역,Compound,*,*,울산+역,울산/NNP/지명+역/NNG/*,Place-station
웅천역,0,0,0,NNP,지명,,웅천역,Compound,*,*,웅천+역,웅천/NNP/지명+역/NNG/*,Place-station
원당역,0,0,0,NNP,지명,,원당역,Compound,*,*,원당+역,원당/NNP/지명+역/NNG/*,Place-station
원대역,0,0,0,NNP,지명,,원대역,Compound,*,*,원대+역,원대/NNP/지명+역/NNG/*,Place-station
원덕역,0,0,0,NNP,지명,,원덕역,Compound,*,*,원덕+역,원덕/NNP/지명+역/NNG/*,Place-station
원동역,0,0,0,NNP,지명,,원동역,Compound,*,*,원동+역,원동/NNP/지명+역/NNG/*,Place-station
원릉역,0,0,0,NNP,지명,,원릉역,Compound,*,*,원릉+역,원릉/NNG/*+역/NNG/*,Place-station
원인재역,0,0,0,NNP,지명,,원인재역,Compound,*,*,원인재+역,원인재/NNP/인명+역/NNG/*,Place-station
원주역,0,0,0,NNP,지명,,원주역,Compound,*,*,원주+역,원주/NNP/지명+역/NNG/*,Place-station
원죽역,0,0,0,NNP,지명,,원죽역,Compound,*,*,원죽+역,원죽/NNG/*+역/NNG/*,Place-station
원창역,0,0,0,NNP,지명,,원창역,Compound,*,*,원창+역,원창/NNP/지명+역/NNG/*,Place-station
월계역,0,0,0,NNP,지명,,월계역,Compound,*,*,월계+역,월계/NNP/지명+역/NNG/*,Place-station
월곡역,0,0,0,NNP,지명,,월곡역,Compound,*,*,월곡+역,월곡/NNP/지명+역/NNG/*,Place-station
월곶역,0,0,0,NNP,지명,,월곶역,Compound,*,*,월곶+역,월곶/NNP/지명+역/NNG/*,Place-station
월내역,0,0,0,NNP,지명,,월내역,Compound,*,*,월내+역,월내/NNP/지명+역/NNG/*,Place-station
월롱역,0,0,0,NNP,지명,,월롱역,Compound,*,*,월롱+역,월롱/NNP/지명+역/NNG/*,Place-station
월촌역,0,0,0,NNP,지명,,월촌역,Compound,*,*,월촌+역,월촌/NNP/지명+역/NNG/*,Place-station
월평역,0,0,0,NNP,지명,,월평역,Compound,*,*,월평+역,월평/NNP/지명+역/NNG/*,Place-station
유교역,0,0,0,NNP,지명,,유교역,Compound,*,*,유교+역,유교/NNP/지명+역/NNG/*,Place-station
유수역,0,0,0,NNP,지명,,유수역,Compound,*,*,유수+역,유수/NNP/지명+역/NNG/*,Place-station
율동역,0,0,0,NNP,지명,,율동역,Compound,*,*,율동+역,율동/NNP/지명+역/NNG/*,Place-station
율리역,0,0,0,NNP,지명,,율리역,Compound,*,*,율리+역,율리/NNP/지명+역/NNG/*,Place-station
율촌역,0,0,0,NNP,지명,,율촌역,Compound,*,*,율촌+역,율촌/NNP/지명+역/NNG/*,Place-station
율하역,0,0,0,NNP,지명,,율하역,Compound,*,*,율하+역,율하/NNP/지명+역/NNG/*,Place-station
음성역,0,0,0,NNP,지명,,음성역,Compound,*,*,음성+역,음성/NNP/지명+역/NNG/*,Place-station
응봉역,0,0,0,NNP,지명,,응봉역,Compound,*,*,응봉+역,응봉/NNP/지명+역/NNG/*,Place-station
응암역,0,0,0,NNP,지명,,응암역,Compound,*,*,응암+역,응암/NNP/지명+역/NNG/*,Place-station
의성역,0,0,0,NNP,지명,,의성역,Compound,*,*,의성+역,의성/NNP/지명+역/NNG/*,Place-station
의왕역,0,0,0,NNP,지명,,의왕역,Compound,*,*,의왕+역,의왕/NNP/지명+역/NNG/*,Place-station
의정부역,0,0,0,NNP,지명,,의정부역,Compound,*,*,의정부+역,의정부/NNP/지명+역/NNG/*,Place-station
이곡역,0,0,0,NNP,지명,,이곡역,Compound,*,*,이곡+역,이곡/NNP/지명+역/NNG/*,Place-station
이대역,0,0,0,NNP,지명,,이대역,Compound,*,*,이대+역,이대/NNG/*+역/NNG/*,Place-station
이매역,0,0,0,NNP,지명,,이매역,Compound,*,*,이매+역,이매/NNP/지명+역/NNG/*,Place-station
이수역,0,0,0,NNP,지명,,이수역,Compound,*,*,이수+역,이수/NNG/*+역/NNG/*,Place-station
이양역,0,0,0,NNP,지명,,이양역,Compound,*,*,이양+역,이양/NNP/지명+역/NNG/*,Place-station
이원역,0,0,0,NNP,지명,,이원역,Compound,*,*,이원+역,이원/NNP/지명+역/NNG/*,Place-station
이촌역,0,0,0,NNP,지명,,이촌역,Compound,*,*,이촌+역,이촌/NNP/지명+역/NNG/*,Place-station
이태원역,0,0,0,NNP,지명,,이태원역,Compound,*,*,이태원+역,이태원/NNP/지명+역/NNG/*,Place-station
이하역,0,0,0,NNP,지명,,이하역,Compound,*,*,이하+역,이하/NNP/지명+역/NNG/*,Place-station
익산역,0,0,0,NNP,지명,,익산역,Compound,*,*,익산+역,익산/NNP/지명+역/NNG/*,Place-station
인천역,0,0,0,NNP,지명,,인천역,Compound,*,*,인천+역,인천/NNP/지명+역/NNG/*,Place-station
일광역,0,0,0,NNP,지명,,일광역,Compound,*,*,일광+역,일광/NNP/지명+역/NNG/*,Place-station
일산역,0,0,0,NNP,지명,,일산역,Compound,*,*,일산+역,일산/NNP/지명+역/NNG/*,Place-station
일신역,0,0,0,NNP,지명,,일신역,Compound,*,*,일신+역,일신/NNP/지명+역/NNG/*,Place-station
일영역,0,0,0,NNP,지명,,일영역,Compound,*,*,일영+역,일영/NNP/지명+역/NNG/*,Place-station
일원역,0,0,0,NNP,지명,,일원역,Compound,*,*,일원+역,일원/NNP/지명+역/NNG/*,Place-station
임곡역,0,0,0,NNP,지명,,임곡역,Compound,*,*,임곡+역,임곡/NNP/지명+역/NNG/*,Place-station
임기역,0,0,0,NNP,지명,,임기역,Compound,*,*,임기+역,임기/NNP/지명+역/NNG/*,Place-station
임당역,0,0,0,NNP,지명,,임당역,Compound,*,*,임당+역,임당/NNP/지명+역/NNG/*,Place-station
임실역,0,0,0,NNP,지명,,임실역,Compound,*,*,임실+역,임실/NNP/지명+역/NNG/*,Place-station
임포역,0,0,0,NNP,지명,,임포역,Compound,*,*,임포+역,임포/NNP/지명+역/NNG/*,Place-station
임피역,0,0,0,NNP,지명,,임피역,Compound,*,*,임피+역,임피/NNP/지명+역/NNG/*,Place-station
임학역,0,0,0,NNP,지명,,임학역,Compound,*,*,임학+역,임학/NNP/지명+역/NNG/*,Place-station
입실역,0,0,0,NNP,지명,,입실역,Compound,*,*,입실+역,입실/NNP/지명+역/NNG/*,Place-station
자갈치역,0,0,0,NNP,지명,,자갈치역,Compound,*,*,자갈치+역,자갈치/NNP/지명+역/NNG/*,Place-station
작전역,0,0,0,NNP,지명,,작전역,Compound,*,*,작전+역,작전/NNP/지명+역/NNG/*,Place-station
잠실역,0,0,0,NNP,지명,,잠실역,Compound,*,*,잠실+역,잠실/NNP/지명+역/NNG/*,Place-station
잠원역,0,0,0,NNP,지명,,잠원역,Compound,*,*,잠원+역,잠원/NNP/지명+역/NNG/*,Place-station
장락역,0,0,0,NNP,지명,,장락역,Compound,*,*,장락+역,장락/NNP/지명+역/NNG/*,Place-station
장산역,0,0,0,NNP,지명,,장산역,Compound,*,*,장산+역,장산/NNP/지명+역/NNG/*,Place-station
장성역,0,0,0,NNP,지명,,장성역,Compound,*,*,장성+역,장성/NNP/지명+역/NNG/*,Place-station
장암역,0,0,0,NNP,지명,,장암역,Compound,*,*,장암+역,장암/NNP/지명+역/NNG/*,Place-station
장유역,0,0,0,NNP,지명,,장유역,Compound,*,*,장유+역,장유/NNP/지명+역/NNG/*,Place-station
장전역,0,0,0,NNP,지명,,장전역,Compound,*,*,장전+역,장전/NNP/지명+역/NNG/*,Place-station
장지역,0,0,0,NNP,지명,,장지역,Compound,*,*,장지+역,장지/NNP/지명+역/NNG/*,Place-station
장흥역,0,0,0,NNP,지명,,장흥역,Compound,*,*,장흥+역,장흥/NNP/지명+역/NNG/*,Place-station
재송역,0,0,0,NNP,지명,,재송역,Compound,*,*,재송+역,재송/NNP/지명+역/NNG/*,Place-station
적량역,0,0,0,NNP,지명,,적량역,Compound,*,*,적량+역,적량/NNP/지명+역/NNG/*,Place-station
전곡역,0,0,0,NNP,지명,,전곡역,Compound,*,*,전곡+역,전곡/NNP/지명+역/NNG/*,Place-station
전동역,0,0,0,NNP,지명,,전동역,Compound,*,*,전동+역,전동/NNP/지명+역/NNG/*,Place-station
전의역,0,0,0,NNP,지명,,전의역,Compound,*,*,전의+역,전의/NNP/지명+역/NNG/*,Place-station
전주역,0,0,0,NNP,지명,,전주역,Compound,*,*,전주+역,전주/NNP/지명+역/NNG/*,Place-station
전포역,0,0,0,NNP,지명,,전포역,Compound,*,*,전포+역,전포/NNP/지명+역/NNG/*,Place-station
점촌역,0,0,0,NNP,지명,,점촌역,Compound,*,*,점촌+역,점촌/NNP/지명+역/NNG/*,Place-station
정동진역,0,0,0,NNP,지명,,정동진역,Compound,*,*,정동진+역,정동진/NNP/지명+역/NNG/*,Place-station
정발산역,0,0,0,NNP,지명,,정발산역,Compound,*,*,정발+산+역,정발/NNG/*+산/NNG/*+역/NNG/*,Place-station
정선역,0,0,0,NNP,지명,,정선역,Compound,*,*,정선+역,정선/NNP/지명+역/NNG/*,Place-station
정읍역,0,0,0,NNP,지명,,정읍역,Compound,*,*,정읍+역,정읍/NNP/지명+역/NNG/*,Place-station
정자역,0,0,0,NNP,지명,,정자역,Compound,*,*,정자+역,정자/NNP/지명+역/NNG/*,Place-station
정평역,0,0,0,NNP,지명,,정평역,Compound,*,*,정평+역,정평/NNP/지명+역/NNG/*,Place-station
제천역,0,0,0,NNP,지명,,제천역,Compound,*,*,제천+역,제천/NNP/지명+역/NNG/*,Place-station
조동역,0,0,0,NNP,지명,,조동역,Compound,*,*,조동+역,조동/NNP/지명+역/NNG/*,Place-station
조성역,0,0,0,NNP,지명,,조성역,Compound,*,*,조성+역,조성/NNP/지명+역/NNG/*,Place-station
종각역,0,0,0,NNP,지명,,종각역,Compound,*,*,종각+역,종각/NNG/*+역/NNG/*,Place-station
좌천역,0,0,0,NNP,지명,,좌천역,Compound,*,*,좌천+역,좌천/NNP/지명+역/NNG/*,Place-station
주례역,0,0,0,NNP,지명,,주례역,Compound,*,*,주례+역,주례/NNP/지명+역/NNG/*,Place-station
주산역,0,0,0,NNP,지명,,주산역,Compound,*,*,주산+역,주산/NNP/지명+역/NNG/*,Place-station
주생역,0,0,0,NNP,지명,,주생역,Compound,*,*,주생+역,주생/NNP/지명+역/NNG/*,Place-station
주안역,0,0,0,NNP,지명,,주안역,Compound,*,*,주안+역,주안/NNP/지명+역/NNG/*,Place-station
주엽역,0,0,0,NNP,지명,,주엽역,Compound,*,*,주엽+역,주엽/NNP/지명+역/NNG/*,Place-station
주평역,0,0,0,NNP,지명,,주평역,Compound,*,*,주평+역,주평/NNP/지명+역/NNG/*,Place-station
주포역,0,0,0,NNP,지명,,주포역,Compound,*,*,주포+역,주포/NNP/지명+역/NNG/*,Place-station
죽동역,0,0,0,NNP,지명,,죽동역,Compound,*,*,죽동+역,죽동/NNP/지명+역/NNG/*,Place-station
죽령역,0,0,0,NNP,지명,,죽령역,Compound,*,*,죽령+역,죽령/NNP/지명+역/NNG/*,Place-station
죽전역,0,0,0,NNP,지명,,죽전역,Compound,*,*,죽전+역,죽전/NNP/지명+역/NNG/*,Place-station
중계역,0,0,0,NNP,지명,,중계역,Compound,*,*,중계+역,중계/NNP/지명+역/NNG/*,Place-station
중곡역,0,0,0,NNP,지명,,중곡역,Compound,*,*,중곡+역,중곡/NNP/지명+역/NNG/*,Place-station
중동역,0,0,0,NNP,지명,,중동역,Compound,*,*,중동+역,중동/NNP/지명+역/NNG/*,Place-station
중랑역,0,0,0,NNP,지명,,중랑역,Compound,*,*,중랑+역,중랑/NNP/지명+역/NNG/*,Place-station
중리역,0,0,0,NNP,지명,,중리역,Compound,*,*,중리+역,중리/NNP/지명+역/NNG/*,Place-station
중앙역,0,0,0,NNP,지명,,중앙역,Compound,*,*,중앙+역,중앙/NNP/지명+역/NNG/*,Place-station
중화역,0,0,0,NNP,지명,,중화역,Compound,*,*,중화+역,중화/NNP/지명+역/NNG/*,Place-station
증미역,0,0,0,NNP,지명,,증미역,Compound,*,*,증미+역,증미/NNG/*+역/NNG/*,Place-station
증산역,0,0,0,NNP,지명,,증산역,Compound,*,*,증산+역,증산/NNP/지명+역/NNG/*,Place-station
증평역,0,0,0,NNP,지명,,증평역,Compound,*,*,증평+역,증평/NNP/지명+역/NNG/*,Place-station
지내역,0,0,0,NNP,지명,,지내역,Compound,*,*,지내+역,지내/NNP/지명+역/NNG/*,Place-station
지산역,0,0,0,NNP,지명,,지산역,Compound,*,*,지산+역,지산/NNP/지명+역/NNG/*,Place-station
지석역,0,0,0,NNP,지명,,지석역,Compound,*,*,지석+역,지석/NNP/지명+역/NNG/*,Place-station
지제역,0,0,0,NNP,지명,,지제역,Compound,*,*,지제+역,지제/NNP/지명+역/NNG/*,Place-station
지족역,0,0,0,NNP,지명,,지족역,Compound,*,*,지족+역,지족/NNP/지명+역/NNG/*,Place-station
지천역,0,0,0,NNP,지명,,지천역,Compound,*,*,지천+역,지천/NNP/지명+역/NNG/*,Place-station
지축역,0,0,0,NNP,지명,,지축역,Compound,*,*,지축+역,지축/NNP/지명+역/NNG/*,Place-station
지탄역,0,0,0,NNP,지명,,지탄역,Compound,*,*,지탄+역,지탄/NNP/지명+역/NNG/*,Place-station
지평역,0,0,0,NNP,지명,,지평역,Compound,*,*,지평+역,지평/NNP/지명+역/NNG/*,Place-station
지행역,0,0,0,NNP,지명,,지행역,Compound,*,*,지행+역,지행/NNP/지명+역/NNG/*,Place-station
직산역,0,0,0,NNP,지명,,직산역,Compound,*,*,직산+역,직산/NNP/지명+역/NNG/*,Place-station
직지사역,0,0,0,NNP,지명,,직지사역,Compound,*,*,직지사+역,직지사/NNP/*+역/NNG/*,Place-station
진남역,0,0,0,NNP,지명,,진남역,Compound,*,*,진남+역,진남/NNG/*+역/NNG/*,Place-station
진상역,0,0,0,NNP,지명,,진상역,Compound,*,*,진상+역,진상/NNP/지명+역/NNG/*,Place-station
진영역,0,0,0,NNP,지명,,진영역,Compound,*,*,진영+역,진영/NNP/지명+역/NNG/*,Place-station
진위역,0,0,0,NNP,지명,,진위역,Compound,*,*,진위+역,진위/NNP/지명+역/NNG/*,Place-station
진주역,0,0,0,NNP,지명,,진주역,Compound,*,*,진주+역,진주/NNP/지명+역/NNG/*,Place-station
진천역,0,0,0,NNP,지명,,진천역,Compound,*,*,진천+역,진천/NNP/지명+역/NNG/*,Place-station
진해역,0,0,0,NNP,지명,,진해역,Compound,*,*,진해+역,진해/NNP/지명+역/NNG/*,Place-station
창동역,0,0,0,NNP,지명,,창동역,Compound,*,*,창동+역,창동/NNP/지명+역/NNG/*,Place-station
창원역,0,0,0,NNP,지명,,창원역,Compound,*,*,창원+역,창원/NNP/지명+역/NNG/*,Place-station
채운역,0,0,0,NNP,지명,,채운역,Compound,*,*,채운+역,채운/NNP/지명+역/NNG/*,Place-station
천안역,0,0,0,NNP,지명,,천안역,Compound,*,*,천안+역,천안/NNP/지명+역/NNG/*,Place-station
천왕역,0,0,0,NNP,지명,,천왕역,Compound,*,*,천왕+역,천왕/NNP/지명+역/NNG/*,Place-station
천호역,0,0,0,NNP,지명,,천호역,Compound,*,*,천호+역,천호/NNP/지명+역/NNG/*,Place-station
철산역,0,0,0,NNP,지명,,철산역,Compound,*,*,철산+역,철산/NNP/지명+역/NNG/*,Place-station
철암역,0,0,0,NNP,지명,,철암역,Compound,*,*,철암+역,철암/NNP/지명+역/NNG/*,Place-station
청구역,0,0,0,NNP,지명,,청구역,Compound,*,*,청구+역,청구/NNP/지명+역/NNG/*,Place-station
청담역,0,0,0,NNP,지명,,청담역,Compound,*,*,청담+역,청담/NNP/지명+역/NNG/*,Place-station
청도역,0,0,0,NNP,지명,,청도역,Compound,*,*,청도+역,청도/NNP/지명+역/NNG/*,Place-station
청량리역,0,0,0,NNP,지명,,청량리역,Compound,*,*,청량리+역,청량리/NNP/지명+역/NNG/*,Place-station
청령역,0,0,0,NNP,지명,,청령역,Compound,*,*,청령+역,청령/NNP/지명+역/NNG/*,Place-station
청리역,0,0,0,NNP,지명,,청리역,Compound,*,*,청리+역,청리/NNP/지명+역/NNG/*,Place-station
청명역,0,0,0,NNP,지명,,청명역,Compound,*,*,청명+역,청명/NNG/*+역/NNG/*,Place-station
청소역,0,0,0,NNP,지명,,청소역,Compound,*,*,청소+역,청소/NNP/지명+역/NNG/*,Place-station
청주역,0,0,0,NNP,지명,,청주역,Compound,*,*,청주+역,청주/NNP/지명+역/NNG/*,Place-station
청천역,0,0,0,NNP,지명,,청천역,Compound,*,*,청천+역,청천/NNP/지명+역/NNG/*,Place-station
청평역,0,0,0,NNP,지명,,청평역,Compound,*,*,청평+역,청평/NNP/지명+역/NNG/*,Place-station
초강역,0,0,0,NNP,지명,,초강역,Compound,*,*,초강+역,초강/NNP/지명+역/NNG/*,Place-station
초남역,0,0,0,NNP,지명,,초남역,Compound,*,*,초남+역,초남/NNP/지명+역/NNG/*,Place-station
초당역,0,0,0,NNP,지명,,초당역,Compound,*,*,초당+역,초당/NNP/지명+역/NNG/*,Place-station
초량역,0,0,0,NNP,지명,,초량역,Compound,*,*,초량+역,초량/NNP/지명+역/NNG/*,Place-station
초지역,0,0,0,NNP,지명,,초지역,Compound,*,*,초지+역,초지/NNP/지명+역/NNG/*,Place-station
추암역,0,0,0,NNP,지명,,추암역,Compound,*,*,추암+역,추암/NNP/지명+역/NNG/*,Place-station
추전역,0,0,0,NNP,지명,,추전역,Compound,*,*,추전+역,추전/NNP/지명+역/NNG/*,Place-station
춘양역,0,0,0,NNP,지명,,춘양역,Compound,*,*,춘양+역,춘양/NNP/지명+역/NNG/*,Place-station
춘의역,0,0,0,NNP,지명,,춘의역,Compound,*,*,춘의+역,춘의/NNP/지명+역/NNG/*,Place-station
춘천역,0,0,0,NNP,지명,,춘천역,Compound,*,*,춘천+역,춘천/NNP/지명+역/NNG/*,Place-station
춘포역,0,0,0,NNP,지명,,춘포역,Compound,*,*,춘포+역,춘포/NNP/지명+역/NNG/*,Place-station
충주역,0,0,0,NNP,지명,,충주역,Compound,*,*,충주+역,충주/NNP/지명+역/NNG/*,Place-station
칠곡역,0,0,0,NNP,지명,,칠곡역,Compound,*,*,칠곡+역,칠곡/NNP/지명+역/NNG/*,Place-station
탄방역,0,0,0,NNP,지명,,탄방역,Compound,*,*,탄방+역,탄방/NNP/지명+역/NNG/*,Place-station
탄부역,0,0,0,NNP,지명,,탄부역,Compound,*,*,탄부+역,탄부/NNP/지명+역/NNG/*,Place-station
탄현역,0,0,0,NNP,지명,,탄현역,Compound,*,*,탄현+역,탄현/NNP/지명+역/NNG/*,Place-station
탑리역,0,0,0,NNP,지명,,탑리역,Compound,*,*,탑리+역,탑리/NNP/지명+역/NNG/*,Place-station
태금역,0,0,0,NNP,지명,,태금역,Compound,*,*,태금+역,태금/NNG/*+역/NNG/*,Place-station
태백역,0,0,0,NNP,지명,,태백역,Compound,*,*,태백+역,태백/NNP/지명+역/NNG/*,Place-station
태전역,0,0,0,NNP,지명,,태전역,Compound,*,*,태전+역,태전/NNP/지명+역/NNG/*,Place-station
태평역,0,0,0,NNP,지명,,태평역,Compound,*,*,태평+역,태평/NNP/지명+역/NNG/*,Place-station
토성역,0,0,0,NNP,지명,,토성역,Compound,*,*,토성+역,토성/NNP/지명+역/NNG/*,Place-station
통해역,0,0,0,NNP,지명,,통해역,Compound,*,*,통해+역,통해/VV+EC/*+역/NNG/*,Place-station
퇴계원역,0,0,0,NNP,지명,,퇴계원역,Compound,*,*,퇴계원+역,퇴계원/NNP/지명+역/NNG/*,Place-station
파주역,0,0,0,NNP,지명,,파주역,Compound,*,*,파주+역,파주/NNP/지명+역/NNG/*,Place-station
판교역,0,0,0,NNP,지명,,판교역,Compound,*,*,판교+역,판교/NNP/지명+역/NNG/*,Place-station
판암역,0,0,0,NNP,지명,,판암역,Compound,*,*,판암+역,판암/NNP/지명+역/NNG/*,Place-station
팔달역,0,0,0,NNP,지명,,팔달역,Compound,*,*,팔달+역,팔달/NNP/지명+역/NNG/*,Place-station
팔당역,0,0,0,NNP,지명,,팔당역,Compound,*,*,팔당+역,팔당/NNP/지명+역/NNG/*,Place-station
평강역,0,0,0,NNP,지명,,평강역,Compound,*,*,평강+역,평강/NNP/지명+역/NNG/*,Place-station
평동역,0,0,0,NNP,지명,,평동역,Compound,*,*,평동+역,평동/NNP/지명+역/NNG/*,Place-station
평은역,0,0,0,NNP,지명,,평은역,Compound,*,*,평은+역,평은/NNP/지명+역/NNG/*,Place-station
평촌역,0,0,0,NNP,지명,,평촌역,Compound,*,*,평촌+역,평촌/NNP/지명+역/NNG/*,Place-station
평택역,0,0,0,NNP,지명,,평택역,Compound,*,*,평택+역,평택/NNP/지명+역/NNG/*,Place-station
평화역,0,0,0,NNP,지명,,평화역,Compound,*,*,평화+역,평화/NNP/지명+역/NNG/*,Place-station
포항역,0,0,0,NNP,지명,,포항역,Compound,*,*,포항+역,포항/NNP/지명+역/NNG/*,Place-station
풍기역,0,0,0,NNP,지명,,풍기역,Compound,*,*,풍기+역,풍기/NNP/지명+역/NNG/*,Place-station
풍산역,0,0,0,NNP,지명,,풍산역,Compound,*,*,풍산+역,풍산/NNP/지명+역/NNG/*,Place-station
하계역,0,0,0,NNP,지명,,하계역,Compound,*,*,하계+역,하계/NNP/지명+역/NNG/*,Place-station
하남역,0,0,0,NNP,지명,,하남역,Compound,*,*,하남+역,하남/NNP/지명+역/NNG/*,Place-station
하단역,0,0,0,NNP,지명,,하단역,Compound,*,*,하단+역,하단/NNP/지명+역/NNG/*,Place-station
하동역,0,0,0,NNP,지명,,하동역,Compound,*,*,하동+역,하동/NNP/지명+역/NNG/*,Place-station
하양역,0,0,0,NNP,지명,,하양역,Compound,*,*,하양+역,하양/NNP/지명+역/NNG/*,Place-station
학동역,0,0,0,NNP,지명,,학동역,Compound,*,*,학동+역,학동/NNP/지명+역/NNG/*,Place-station
학여울역,0,0,0,NNP,지명,,학여울역,Compound,*,*,학여울+역,학여울/NNP/인명+역/NNG/*,Place-station
학정역,0,0,0,NNP,지명,,학정역,Compound,*,*,학정+역,학정/NNP/지명+역/NNG/*,Place-station
한남역,0,0,0,NNP,지명,,한남역,Compound,*,*,한남+역,한남/NNP/지명+역/NNG/*,Place-station
한티역,0,0,0,NNP,지명,,한티역,Compound,*,*,한티+역,한티/NNP/지명+역/NNG/*,Place-station
함안역,0,0,0,NNP,지명,,함안역,Compound,*,*,함안+역,함안/NNP/지명+역/NNG/*,Place-station
함열역,0,0,0,NNP,지명,,함열역,Compound,*,*,함열+역,함열/NNP/지명+역/NNG/*,Place-station
함창역,0,0,0,NNP,지명,,함창역,Compound,*,*,함창+역,함창/NNP/지명+역/NNG/*,Place-station
함평역,0,0,0,NNP,지명,,함평역,Compound,*,*,함평+역,함평/NNP/지명+역/NNG/*,Place-station
합정역,0,0,0,NNP,지명,,합정역,Compound,*,*,합정+역,합정/NNP/지명+역/NNG/*,Place-station
해안역,0,0,0,NNP,지명,,해안역,Compound,*,*,해안+역,해안/NNP/지명+역/NNG/*,Place-station
행당역,0,0,0,NNP,지명,,행당역,Compound,*,*,행당+역,행당/NNP/지명+역/NNG/*,Place-station
행신역,0,0,0,NNP,지명,,행신역,Compound,*,*,행신+역,행신/NNP/지명+역/NNG/*,Place-station
현동역,0,0,0,NNP,지명,,현동역,Compound,*,*,현동+역,현동/NNP/지명+역/NNG/*,Place-station
혜화역,0,0,0,NNP,지명,,혜화역,Compound,*,*,혜화+역,혜화/NNP/지명+역/NNG/*,Place-station
호계역,0,0,0,NNP,지명,,호계역,Compound,*,*,호계+역,호계/NNP/지명+역/NNG/*,Place-station
호포역,0,0,0,NNP,지명,,호포역,Compound,*,*,호포+역,호포/NNP/지명+역/NNG/*,Place-station
홍성역,0,0,0,NNP,지명,,홍성역,Compound,*,*,홍성+역,홍성/NNP/지명+역/NNG/*,Place-station
홍제역,0,0,0,NNP,지명,,홍제역,Compound,*,*,홍제+역,홍제/NNP/지명+역/NNG/*,Place-station
화곡역,0,0,0,NNP,지명,,화곡역,Compound,*,*,화곡+역,화곡/NNP/지명+역/NNG/*,Place-station
화명역,0,0,0,NNP,지명,,화명역,Compound,*,*,화명+역,화명/NNP/지명+역/NNG/*,Place-station
화본역,0,0,0,NNP,지명,,화본역,Compound,*,*,화본+역,화본/NNP/지명+역/NNG/*,Place-station
화산역,0,0,0,NNP,지명,,화산역,Compound,*,*,화산+역,화산/NNP/지명+역/NNG/*,Place-station
화서역,0,0,0,NNP,지명,,화서역,Compound,*,*,화서+역,화서/NNP/지명+역/NNG/*,Place-station
화순역,0,0,0,NNP,지명,,화순역,Compound,*,*,화순+역,화순/NNP/지명+역/NNG/*,Place-station
화양역,0,0,0,NNP,지명,,화양역,Compound,*,*,화양+역,화양/NNP/지명+역/NNG/*,Place-station
화전역,0,0,0,NNP,지명,,화전역,Compound,*,*,화전+역,화전/NNP/지명+역/NNG/*,Place-station
화정역,0,0,0,NNP,지명,,화정역,Compound,*,*,화정+역,화정/NNP/지명+역/NNG/*,Place-station
황간역,0,0,0,NNP,지명,,황간역,Compound,*,*,황간+역,황간/NNP/지명+역/NNG/*,Place-station
황금역,0,0,0,NNP,지명,,황금역,Compound,*,*,황금+역,황금/NNP/지명+역/NNG/*,Place-station
황길역,0,0,0,NNP,지명,,황길역,Compound,*,*,황길+역,황길/NNP/지명+역/NNG/*,Place-station
황등역,0,0,0,NNP,지명,,황등역,Compound,*,*,황등+역,황등/NNP/지명+역/NNG/*,Place-station
회기역,0,0,0,NNP,지명,,회기역,Compound,*,*,회기+역,회기/NNP/지명+역/NNG/*,Place-station
회덕역,0,0,0,NNP,지명,,회덕역,Compound,*,*,회덕+역,회덕/NNP/지명+역/NNG/*,Place-station
회룡역,0,0,0,NNP,지명,,회룡역,Compound,*,*,회룡+역,회룡/NNP/지명+역/NNG/*,Place-station
회현역,0,0,0,NNP,지명,,회현역,Compound,*,*,회현+역,회현/NNP/지명+역/NNG/*,Place-station
횡천역,0,0,0,NNP,지명,,횡천역,Compound,*,*,횡천+역,횡천/NNP/지명+역/NNG/*,Place-station
효문역,0,0,0,NNP,지명,,효문역,Compound,*,*,효문+역,효문/NNP/지명+역/NNG/*,Place-station
효자역,0,0,0,NNP,지명,,효자역,Compound,*,*,효자+역,효자/NNP/지명+역/NNG/*,Place-station
효창역,0,0,0,NNP,지명,,효창역,Compound,*,*,효창+역,효창/NNP/지명+역/NNG/*,Place-station
효천역,0,0,0,NNP,지명,,효천역,Compound,*,*,효천+역,효천/NNG/*+역/NNG/*,Place-station
흑석역,0,0,0,NNP,지명,,흑석역,Compound,*,*,흑석+역,흑석/NNP/지명+역/NNG/*,Place-station
흥선역,0,0,0,NNP,지명,,흥선역,Compound,*,*,흥선+역,흥선/NNP/지명+역/NNG/*,Place-station
