가락시장역,0,0,0,NNP,지명,,가락시장역,Compound,*,*,가락+시장+역,가락/NNG/*+시장/NNG/*+역/NNG/*,Place-station
가산디지털단지역,0,0,0,NNP,지명,,가산디지털단지역,Compound,*,*,가산+디지털+단지+역,가산/NNP/지명+디지털/NNG/*+단지/NNG/*+역/NNG/*,Place-station
가야대역,0,0,0,NNP,지명,,가야대역,Compound,*,*,가야+대+역,가야/NNP/지명+대/NNG/*+역/NNG/*,Place-station
가야역,0,0,0,NNP,지명,,가야역,Compound,*,*,가야+역,가야/NNP/지명+역/NNG/*,Place-station
가천대역,0,0,0,NNP,지명,,가천대역,Compound,*,*,가천+대+역,가천/NNP/지명+대/NNG/*+역/NNG/*,Place-station
간석오거리역,0,0,0,NNP,지명,,간석오거리역,Compound,*,*,간석+오+거리+역,간석/NNG/*+오/NNG/*+거리/NNG/*+역/NNG/*,Place-station
갈산역,0,0,0,NNP,지명,,갈산역,Compound,*,*,갈산+역,갈산/NNP/지명+역/NNG/*,Place-station
갑현,0,0,0,NNP,지명,,갑현,*,*,*,*,*,Place
갑현역,0,0,0,NNP,지명,,갑현역,Compound,*,*,갑현+역,갑현/NNP/지명+역/NNG/*,Place-station
강남구청역,0,0,0,NNP,지명,,강남구청역,Compound,*,*,강남+구청+역,강남/NNP/지명+구청/NNG/*+역/NNG/*,Place-station
강남대역,0,0,0,NNP,지명,,강남대역,Compound,*,*,강남+대+역,강남/NNP/지명+대/NNG/*+역/NNG/*,Place-station
강동구청역,0,0,0,NNP,지명,,강동구청역,Compound,*,*,강동+구청+역,강동/NNP/지명+구청/NNG/*+역/NNG/*,Place-station
강서구청역,0,0,0,NNP,지명,,강서구청역,Compound,*,*,강서+구청+역,강서/NNP/지명+구청/NNG/*+역/NNG/*,Place-station
개롱,0,0,0,NNP,지명,,개롱,*,*,*,*,*,Place
개롱역,0,0,0,NNP,지명,,개롱역,Compound,*,*,개롱+역,개롱/NNP/지명+역/NNG/*,Place-station
개태,0,0,0,NNP,*,,개태,Compound,*,*,*,*
개태사역,0,0,0,NNP,지명,,개태사역,Compound,*,*,개태+사+역,개태/NNP/*+사/NNG/*+역/NNG/*,Place-station
개포동역,0,0,0,NNP,지명,,개포동역,Compound,*,*,개포+동+역,개포/NNP/지명+동/NNG/*+역/NNG/*,Place-station
개화산역,0,0,0,NNP,지명,,개화산역,Compound,*,*,개화+산+역,개화/NNP/지명+산/NNG/*+역/NNG/*,Place-station
건대,0,0,0,NNP,*,,건대,Compound,*,*,*,*
건대입구역,0,0,0,NNP,지명,,건대입구역,Compound,*,*,건대+입구+역,건대/NNP/*+입구/NNG/*+역/NNG/*,Place-station
경기도청북부청사역,0,0,0,NNP,지명,,경기도청북부청사역,Compound,*,*,경기+도청+북부+청사+역,경기/NNG/*+도청/NNG/*+북부/NNG/*+청사/NNG/*+역/NNG/*,Place-station
경대,0,0,0,NNP,*,,경대,Compound,*,*,*,*
경대병원역,0,0,0,NNP,지명,,경대병원역,Compound,*,*,경대+병원+역,경대/NNP/*+병원/NNP/지명+역/NNG/*,Place-station
경마공원역,0,0,0,NNP,지명,,경마공원역,Compound,*,*,경마+공원+역,경마/NNG/*+공원/NNG/*+역/NNG/*,Place-station
경복궁역,0,0,0,NNP,지명,,경복궁역,Compound,*,*,경복+궁+역,경복/NNG/*+궁/NNG/*+역/NNG/*,Place-station
경인교대입구역,0,0,0,NNP,지명,,경인교대입구역,Compound,*,*,경인+교대+입구+역,경인/NNG/*+교대/NNP/지명+입구/NNG/*+역/NNG/*,Place-station
경전철의정부역,0,0,0,NNP,지명,,경전철의정부역,Compound,*,*,경+전철+의정부+역,경/NNG/*+전철/NNG/*+의정부/NNP/지명+역/NNG/*,Place-station
경찰병원역,0,0,0,NNP,지명,,경찰병원역,Compound,*,*,경찰+병원+역,경찰/NNG/*+병원/NNG/*+역/NNG/*,Place-station
계명대역,0,0,0,NNP,지명,,계명대역,Compound,*,*,계명+대+역,계명/NNG/*+대/NNG/*+역/NNG/*,Place-station
고막원,0,0,0,NNP,지명,,고막원,*,*,*,*,*,Place
고막원역,0,0,0,NNP,지명,,고막원역,Compound,*,*,고막원+역,고막원/NNP/지명+역/NNG/*,Place-station
고속터미널역,0,0,0,NNP,지명,,고속터미널역,Compound,*,*,고속+터미널+역,고속/NNG/*+터미널/NNG/*+역/NNG/*,Place-station
골약,0,0,0,NNP,지명,,골약,*,*,*,*,*,Place
골약역,0,0,0,NNP,지명,,골약역,Compound,*,*,골약+역,골약/NNP/지명+역/NNG/*,Place-station
공항시장역,0,0,0,NNP,지명,,공항시장역,Compound,*,*,공항+시장+역,공항/NNG/*+시장/NNG/*+역/NNG/*,Place-station
공항화물청사역,0,0,0,NNP,지명,,공항화물청사역,Compound,*,*,공항+화물+청사+역,공항/NNG/*+화물/NNG/*+청사/NNG/*+역/NNG/*,Place-station
광나루역,0,0,0,NNP,지명,,광나루역,Compound,*,*,광+나루+역,광/NNG/*+나루/NNG/*+역/NNG/*,Place-station
광명사거리역,0,0,0,NNP,지명,,광명사거리역,Compound,*,*,광명+사+거리+역,광명/NNP/지명+사/NNG/*+거리/NNG/*+역/NNG/*,Place-station
광양항역,0,0,0,NNP,지명,,광양항역,Compound,*,*,광양+항+역,광양/NNP/지명+항/NNG/*+역/NNG/*,Place-station
광운대역,0,0,0,NNP,지명,,광운대역,Compound,*,*,광운+대+역,광운/NNP/*+대/NNG/*+역/NNG/*,Place-station
광주송정역,0,0,0,NNP,지명,,광주송정역,Compound,*,*,광주+송정+역,광주/NNP/지명+송정/NNP/지명+역/NNG/*,Place-station
광화문역,0,0,0,NNP,지명,,광화문역,Compound,*,*,광화+문+역,광화/NNG/*+문/NNG/*+역/NNG/*,Place-station
광흥창역,0,0,0,NNP,지명,,광흥창역,Compound,*,*,광흥+창+역,광흥/NNG/*+창/NNG/*+역/NNG/*,Place-station
르네시떼,0,0,0,NNP,지명,,르네시떼,*,*,*,*,*,Place
괘법르네시떼역,0,0,0,NNP,지명,,괘법르네시떼역,Compound,*,*,괘법+르네시떼+역,괘법/NNP/지명+르네시떼/NNP/지명+역/NNG/*,Place-station
구남,0,0,0,NNP,지명,,구남,*,*,*,*,*,Place
구남역,0,0,0,NNP,지명,,구남역,Compound,*,*,구남+역,구남/NNP/지명+역/NNG/*,Place-station
구례구,0,0,0,NNP,지명,,구례구,*,*,*,*,*,Place
구례구역,0,0,0,NNP,지명,,구례구역,Compound,*,*,구례구+역,구례구/NNP/지명+역/NNG/*,Place-station
구로디지털단지역,0,0,0,NNP,지명,,구로디지털단지역,Compound,*,*,구로+디지털+단지+역,구로/NNG/*+디지털/NNG/*+단지/NNG/*+역/NNG/*,Place-station
구반포,0,0,0,NNP,지명,,구반포,*,*,*,*,*,Place
구반포역,0,0,0,NNP,지명,,구반포역,Compound,*,*,구반포+역,구반포/NNP/지명+역/NNG/*,Place-station
구절리역,0,0,0,NNP,지명,,구절리역,Compound,*,*,구절+리+역,구절/NNP/지명+리/NNG/*+역/NNG/*,Place-station
국제업무지구역,0,0,0,NNP,지명,,국제업무지구역,Compound,*,*,국제+업무+지구+역,국제/NNG/*+업무/NNG/*+지구/NNP/지명+역/NNG/*,Place-station
국회의사당역,0,0,0,NNP,지명,,국회의사당역,Compound,*,*,국회+의사당+역,국회/NNG/*+의사당/NNG/*+역/NNG/*,Place-station
군산화물역,0,0,0,NNP,지명,,군산화물역,Compound,*,*,군산+화물+역,군산/NNP/지명+화물/NNG/*+역/NNG/*,Place-station
굴봉산역,0,0,0,NNP,지명,,굴봉산역,Compound,*,*,굴봉+산+역,굴봉/NNG/*+산/NNG/*+역/NNG/*,Place-station
굴포천역,0,0,0,NNP,지명,,굴포천역,Compound,*,*,굴포+천+역,굴포/NNP/지명+천/NNG/*+역/NNG/*,Place-station
굽은다리역,0,0,0,NNP,지명,,굽은다리역,Preanalysis,*,*,굽+은+다리+역,굽/VV/*+은/ETM/*+다리/NNG/*+역/NNG/*,Place-station
금교,0,0,0,NNP,지명,,금교,*,*,*,*,*,Place
금교역,0,0,0,NNP,지명,,금교역,Compound,*,*,금교+역,금교/NNP/지명+역/NNG/*,Place-station
금남로,0,0,0,NNP,지명,,금남로,*,*,*,*,*,Place
금남로4가역,0,0,0,NNP,지명,,금남로4가역,Compound,*,*,금남로+4+가+역,금남로/NNP/지명+4/SN/*+가/XSN/*+역/NNG/*,Place-station
금남로5가역,0,0,0,NNP,지명,,금남로5가역,Compound,*,*,금남로+5+가+역,금남로/NNP/지명+5/SN/*+가/XSN/*+역/NNG/*,Place-station
금련산역,0,0,0,NNP,지명,,금련산역,Compound,*,*,금련+산+역,금련/NNG/*+산/NNG/*+역/NNG/*,Place-station
금천구청역,0,0,0,NNP,지명,,금천구청역,Compound,*,*,금천+구청+역,금천/NNG/*+구청/NNG/*+역/NNG/*,Place-station
길동역,0,0,0,NNP,지명,,길동역,Compound,*,*,길+동+역,길/NNG/*+동/NNG/*+역/NNG/*,Place-station
김대중컨벤션센터역,0,0,0,NNP,지명,,김대중컨벤션센터역,Compound,*,*,김대중+컨벤션+센터+역,김대중/NNP/인명+컨벤션/NNG/*+센터/NNG/*+역/NNG/*,Place-station
김유정역,0,0,0,NNP,지명,,김유정역,Compound,*,*,김유정+역,김유정/NNP/인명+역/NNG/*,Place-station
김포공항역,0,0,0,NNP,지명,,김포공항역,Compound,*,*,김포+공항+역,김포/NNP/지명+공항/NNP/지명+역/NNG/*,Place-station
김해대학역,0,0,0,NNP,지명,,김해대학역,Compound,*,*,김해+대학+역,김해/NNP/지명+대학/NNG/*+역/NNG/*,Place-station
김해시청역,0,0,0,NNP,지명,,김해시청역,Compound,*,*,김해+시청+역,김해/NNP/지명+시청/NNG/*+역/NNG/*,Place-station
까치울,0,0,0,NNP,지명,,까치울,*,*,*,*,*,Place
까치울역,0,0,0,NNP,지명,,까치울역,Compound,*,*,까치울+역,까치울/NNP/지명+역/NNG/*,Place-station
남광주,0,0,0,NNP,지명,,남광주,*,*,*,*,*,Place
낙동강역,0,0,0,NNP,지명,,낙동강역,Compound,*,*,낙동+강+역,낙동/NNG/*+강/NNG/*+역/NNG/*,Place-station
낙성대역,0,0,0,NNP,지명,,낙성대역,Compound,*,*,낙성+대+역,낙성/NNG/*+대/NNG/*+역/NNG/*,Place-station
남광주역,0,0,0,NNP,지명,,남광주역,Compound,*,*,남광주+역,남광주/NNP/지명+역/NNG/*,Place-station
남구로,0,0,0,NNP,지명,,남구로,*,*,*,*,*,Place
남구로역,0,0,0,NNP,지명,,남구로역,Compound,*,*,남구로+역,남구로/NNP/지명*+역/NNG/*,Place-station
인더스파크,0,0,0,NNP,*,,인더스파크,*,*,*,*,*,Foreign
남동인더스파크역,0,0,0,NNP,지명,,남동인더스파크역,Compound,*,*,남동+인더스파크+역,남동/NNP/지명+인더스파크/NNP/*+역/NNG/*,Place-station
남문구,0,0,0,NNP,지명,,남문구,*,*,*,*,*,Place
남문구역,0,0,0,NNP,지명,,남문구역,Compound,*,*,남문구+역,남문구/NNP/지명+역/NNG/*,Place-station
남부터미널역,0,0,0,NNP,지명,,남부터미널역,Compound,*,*,남부+터미널+역,남부/NNG/*+터미널/NNG/*+역/NNG/*,Place-station
남산정,0,0,0,NNP,지명,,남산정,*,*,*,*,*,Place
남산정역,0,0,0,NNP,지명,,남산정역,Compound,*,*,남산정+역,남산정/NNP/지명+역/NNG/*,Place-station
남양산,0,0,0,NNP,지명,,남양+산,Compound,*,*,남양+산,남양/NNP/지명+산/NNG/*,Place
남양산역,0,0,0,NNP,지명,,남양산역,Compound,*,*,남양+산+역,남양/NNP/지명+산/NNG/*+역/NNG/*,Place-station
남영역,0,0,0,NNP,지명,,남영역,Compound,*,*,남영+역,남영/NNP/지명+역/NNG/*,Place-station
남창원,0,0,0,NNP,지명,,남창원,*,*,*,*,*,Place
남창원역,0,0,0,NNP,지명,,남창원역,Compound,*,*,남창원+역,남창원/NNP/지명+역/NNG/*,Place-station
남철송장역,0,0,0,NNP,지명,,남철송장역,Compound,*,*,남+철+송장+역,남/NNG/*+철/NNG/*+송장/NNG/*+역/NNG/*,Place-station
남춘천역,0,0,0,NNP,지명,,남춘천역,Compound,*,*,남춘천+역,남춘천/NNP/지명+역/NNG/*,Place-station
남한산성입구역,0,0,0,NNP,지명,,남한산성입구역,Compound,*,*,남한+산성+입구+역,남한/NNG/*+산성/NNG/*+입구/NNG/*+역/NNG/*,Place-station
내방역,0,0,0,NNP,지명,,내방역,Compound,*,*,내방+역,내방/NNP/지명+역/NNG/*,Place-station
다솔사,0,0,0,NNP,지명,,다솔사,Compound,*,*,다솔+사,다솔/NNP/*+사/NNG/*,Place-station
다솔사역,0,0,0,NNP,지명,,다솔사역,Compound,*,*,다솔+사+역,다솔/NNP/*+사/NNG/*+역/NNG/*,Place-station
단대오거리역,0,0,0,NNP,지명,,단대오거리역,Compound,*,*,단대+오+거리+역,단대/NNP/지명+오/NNG/*+거리/NNG/*+역/NNG/*,Place-station
달성공원역,0,0,0,NNP,지명,,달성공원역,Compound,*,*,달성+공원+역,달성/NNG/*+공원/NNG/*+역/NNG/*,Place-station
담티,0,0,0,NNP,지명,,담티,*,*,*,*,*,Place
담티역,0,0,0,NNP,지명,,담티역,Compound,*,*,담티+역,담티/NNP/지명+역/NNG/*,Place-station
당고개역,0,0,0,NNP,지명,,당고개역,Compound,*,*,당고개+역,당고개/NNP/지명+역/NNG/*,Place-station
대공원역,0,0,0,NNP,지명,,대공원역,Compound,*,*,대+공원+역,대/NNG/*+공원/NNG/*+역/NNG/*,Place-station
대광리역,0,0,0,NNP,지명,,대광리역,Compound,*,*,대광+리+역,대광/NNP/지명+리/NNG/*+역/NNG/*,Place-station
대구은행역,0,0,0,NNP,지명,,대구은행역,Compound,*,*,대구+은행+역,대구/NNP/지명+은행/NNG/*+역/NNG/*,Place-station
대모산입구역,0,0,0,NNP,지명,,대모산입구역,Compound,*,*,대모+산+입구+역,대모/NNG/*+산/NNG/*+입구/NNG/*+역/NNG/*,Place-station
대봉교,0,0,0,NNP,지명,,대봉교,*,*,*,*,*,Place
대봉교역,0,0,0,NNP,지명,,대봉교역,Compound,*,*,대봉교+역,대봉교/NNP/지명+역/NNG/*,Place-station
대성리역,0,0,0,NNP,지명,,대성리역,Compound,*,*,대성+리+역,대성/NNP/지명+리/NNG/*+역/NNG/*,Place-station
대전조차장역,0,0,0,NNP,지명,,대전조차장역,Compound,*,*,대전+조차+장+역,대전/NNP/지명+조차/NNG/*+장/NNG/*+역/NNG/*,Place-station
대정역,0,0,0,NNP,지명,,대정역,Compound,*,*,대정+역,대정/NNP/지명+역/NNG/*,Place-station
덕두,0,0,0,NNP,지명,,덕두,*,*,*,*,*,Place
덕두역,0,0,0,NNP,지명,,덕두역,Compound,*,*,덕두+역,덕두/NNP/지명+역/NNG/*,Place-station
도경리역,0,0,0,NNP,지명,,도경리역,Compound,*,*,도경+리+역,도경/NNP/지명+리/NNG/*+역/NNG/*,Place-station
도고온천역,0,0,0,NNP,지명,,도고온천역,Compound,*,*,도고+온천+역,도고/NNP/지명+온천/NNG/*+역/NNG/*,Place-station
도라산역,0,0,0,NNP,지명,,도라산역,Compound,*,*,도라+산+역,도라/NNG/*+산/NNG/*+역/NNG/*,Place-station
도림천역,0,0,0,NNP,지명,,도림천역,Compound,*,*,도림+천+역,도림/NNP/지명+천/NNG/*+역/NNG/*,Place-station
도봉산역,0,0,0,NNP,지명,,도봉산역,Compound,*,*,도봉+산+역,도봉/NNG/*+산/NNG/*+역/NNG/*,Place-station
독립문역,0,0,0,NNP,지명,,독립문역,Compound,*,*,독립+문+역,독립/NNG/*+문/NNG/*+역/NNG/*,Place-station
독바위역,0,0,0,NNP,지명,,독바위역,Compound,*,*,독+바위+역,독/NNG/*+바위/NNG/*+역/NNG/*,Place-station
돌고개역,0,0,0,NNP,지명,,돌고개역,Compound,*,*,돌+고개+역,돌/NNG/*+고개/NNG/*+역/NNG/*,Place-station
돌곶이역,0,0,0,NNP,지명,,돌곶이역,Compound,*,*,돌+곶이+역,돌/NNG/*+곶이/NNG/*+역/NNG/*,Place-station
동대구역,0,0,0,NNP,지명,,동대구역,Compound,*,*,동+대구+역,동/NNG/*+대구/NNG/*+역/NNG/*,Place-station
동대문역사문화공원역,0,0,0,NNP,지명,,동대문역사문화공원역,Compound,*,*,동+대문+역사+문화+공원+역,동/NNG/*+대문/NNG/*+역사/NNG/*+문화/NNG/*+공원/NNG/*+역/NNG/*,Place-station
동대입구역,0,0,0,NNP,지명,,동대입구역,Compound,*,*,동대+입구+역,동대/NNP/지명+입구/NNG/*+역/NNG/*,Place-station
동두,0,0,0,NNP,지명,,동두,*,*,*,*,*,Place
동두천역,0,0,0,NNP,지명,,동두천역,Compound,*,*,동두+천+역,동두/NNP/지명+천/NNG/*+역/NNG/*,Place-station
동두천중앙역,0,0,0,NNP,지명,,동두천중앙역,Compound,*,*,동두+천+중앙+역,동두/NNP/지명+천/NNG/*+중앙/NNG/*+역/NNG/*,Place-station
동묘앞역,0,0,0,NNP,지명,,동묘앞역,Compound,*,*,동묘+앞+역,동묘/NNG/*+앞/NNG/*+역/NNG/*,Place-station
동백산역,0,0,0,NNP,지명,,동백산역,Compound,*,*,동백+산+역,동백/NNG/*+산/NNG/*+역/NNG/*,Place-station
동부산,0,0,0,NNP,지명,,동부산,*,*,*,*,*,Place
동부산대학역,0,0,0,NNP,지명,,동부산대학역,Compound,*,*,동부산+대학+역,동부산/NNP/지명+대학/NNP/지명+역/NNG/*,Place-station
동송정,0,0,0,NNP,지명,,동송정,*,*,*,*,*,Place
동송정역,0,0,0,NNP,지명,,동송정역,Compound,*,*,동송정+역,동송정/NNP/지명+역/NNG/*,Place-station
동의,0,0,0,NNP,*,,동의,*,*,*,*,*
동의대역,0,0,0,NNP,지명,,동의대역,Compound,*,*,동의+대+역,동의/NNP/*+대/NNG/*+역/NNG/*,Place-station
동인천,0,0,0,NNP,지명,,동인천,*,*,*,*,*,Place
동인천역,0,0,0,NNP,지명,,동인천역,Compound,*,*,동인천+역,동인천/NNP/지명+역/NNG/*,Place-station
둔촌동역,0,0,0,NNP,지명,,둔촌동역,Compound,*,*,둔촌+동+역,둔촌/NNP/지명+동/NNG/*+역/NNG/*,Place-station
디지털미디어시티역,0,0,0,NNP,지명,,디지털미디어시티역,Compound,*,*,디지털+미디어+시티+역,디지털/NNG/*+미디어/NNG/*+시티/NNG/*+역/NNG/*,Place-station
뚝섬유원지역,0,0,0,NNP,지명,,뚝섬유원지역,Compound,*,*,뚝섬+유원+지+역,뚝섬/NNP/지명+유원/NNG/*+지/NNG/*+역/NNG/*,Place-station
마곡나루역,0,0,0,NNP,지명,,마곡나루역,Compound,*,*,마곡+나루+역,마곡/NNG/*+나루/NNG/*+역/NNG/*,Place-station
마들역,0,0,0,NNP,지명,,마들역,Compound,*,*,마들+역,마들/NNP/*+역/NNG/*,Place-station
마석역,0,0,0,NNP,지명,,마석역,Compound,*,*,마석+역,마석/NNP/지명*+역/NNG/*,Place-station
마차리역,0,0,0,NNP,지명,,마차리역,Compound,*,*,마차+리+역,마차/NNP/지명+리/NNG/*+역/NNG/*,Place-station
마포구청역,0,0,0,NNP,지명,,마포구청역,Compound,*,*,마포+구청+역,마포/NNP/지명+구청/NNG/*+역/NNG/*,Place-station
망월사역,0,0,0,NNP,지명,,망월사역,Compound,*,*,망월+사+역,망월/NNP/지명+사/NNG/*+역/NNG/*,Place-station
매탄권선역,0,0,0,NNP,지명,,매탄권선역,Compound,*,*,매탄+권선+역,매탄/NNP/지명+권선/NNP/지명+역/NNG/*,Place-station
먹골,0,0,0,NNP,지명,,먹골,*,*,*,*,*,Place
먹골역,0,0,0,NNP,지명,,먹골역,Compound,*,*,먹골+역,먹골/NNP/지명+역/NNG/*,Place-station
명지대역,0,0,0,NNP,지명,,명지대역,Compound,*,*,명지+대+역,명지/NNG/*+대/NNG/*+역/NNG/*,Place-station
모덕,0,0,0,NNP,지명,,모덕,*,*,*,*,*,Place
모덕역,0,0,0,NNP,지명,,모덕역,Compound,*,*,모덕+역,모덕/NNP/지명+역/NNG/*,Place-station
못골,0,0,0,NNP,지명,,못골,*,*,*,*,*,Place
못골역,0,0,0,NNP,지명,,못골역,Compound,*,*,못골+역,못골/NNP/지명+역/NNG/*,Place-station
몽촌토성역,0,0,0,NNP,지명,,몽촌토성역,Compound,*,*,몽촌+토성+역,몽촌/NNP/지명+토성/NNP/지명+역/NNG/*,Place-station
무악재역,0,0,0,NNP,지명,,무악재역,Compound,*,*,무악+재+역,무악/NNG/*+재/NNG/*+역/NNG/*,Place-station
묵호항역,0,0,0,NNP,지명,,묵호항역,Compound,*,*,묵호+항+역,묵호/NNP/지명+항/NNG/*+역/NNG/*,Place-station
문학경기장역,0,0,0,NNP,지명,,문학경기장역,Compound,*,*,문학+경기+장+역,문학/NNG/*+경기/NNG/*+장/NNG/*+역/NNG/*,Place-station
문화전당역,0,0,0,NNP,지명,,문화전당역,Compound,*,*,문화+전당+역,문화/NNG/*+전당/NNG/*+역/NNG/*,Place-station
물금역,0,0,0,NNP,지명,,물금역,Compound,*,*,물금+역,물금/NNP/지명+역/NNG/*,Place-station
물만골,0,0,0,NNP,지명,,물만골,*,*,*,*,*,Place
물만골역,0,0,0,NNP,지명,,물만골역,Compound,*,*,물만골+역,물만골/NNP/지명+역/NNG/*,Place-station
미아사거리역,0,0,0,NNP,지명,,미아사거리역,Compound,*,*,미아+사+거리+역,미아/NNG/*+사/NNG/*+거리/NNG/*+역/NNG/*,Place-station
민둥산역,0,0,0,NNP,지명,,민둥산역,Compound,*,*,민둥+산+역,민둥/NNG/*+산/NNG/*+역/NNG/*,Place-station
박물관역,0,0,0,NNP,지명,,박물관역,Compound,*,*,박물+관+역,박물/NNG/*+관/NNG/*+역/NNG/*,Place-station
반고개,0,0,0,NNP,지명,,반고개,*,*,*,*,*,Place
반고개역,0,0,0,NNP,지명,,반고개역,Compound,*,*,반고개+역,반고개/NNP/지명+역/NNG/*,Place-station
반월당역,0,0,0,NNP,지명,,반월당역,Compound,*,*,반월당+역,반월당/NNP/*+역/NNG/*,Place-station
발곡,0,0,0,NNP,지명,,발곡,*,*,*,*,*,Place
발곡역,0,0,0,NNP,지명,,발곡역,Compound,*,*,발곡+역,발곡/NNP/지명+역/NNG/*,Place-station
백양리역,0,0,0,NNP,지명,,백양리역,Compound,*,*,백양+리+역,백양/NNP/지명+리/NNG/*+역/NNG/*,Place-station
백양사역,0,0,0,NNP,지명,,백양사역,Compound,*,*,백양+사+역,백양/NNG/*+사/NNG/*+역/NNG/*,Place-station
버티,0,0,0,NNP,지명,,버티,*,*,*,*,*,Place
버티고개역,0,0,0,NNP,지명,,버티고개역,Compound,*,*,버티+고개+역,버티/NNP/지명+고개/NNG/*+역/NNG/*,Place-station
범내골,0,0,0,NNP,지명,,범내골,*,*,*,*,*,Place
범내골역,0,0,0,NNP,지명,,범내골역,Compound,*,*,범내골+역,범내골/NNP/지명+역/NNG/*,Place-station
별어곡,0,0,0,NNP,지명,,별어곡,*,*,*,*,*,Place
별어곡역,0,0,0,NNP,지명,,별어곡역,Compound,*,*,별어곡+역,별어곡/NNP/지명+역/NNG/*,Place-station
보라매역,0,0,0,NNP,지명,,보라매역,Compound,*,*,보라+매+역,보라/NNG/*+매/NNG/*+역/NNG/*,Place-station
보평,0,0,0,NNP,지명,,보평,*,*,*,*,*,Place
보평역,0,0,0,NNP,지명,,보평역,Compound,*,*,보평+역,보평/NNP/지명+역/NNG/*,Place-station
봉화산역,0,0,0,NNP,지명,,봉화산역,Compound,*,*,봉화+산+역,봉화/NNG/*+산/NNG/*+역/NNG/*,Place-station
부강화물역,0,0,0,NNP,지명,,부강화물역,Compound,*,*,부강+화물+역,부강/NNP/지명+화물/NNG/*+역/NNG/*,Place-station
부산대역,0,0,0,NNP,지명,,부산대역,Compound,*,*,부산+대+역,부산/NNG/*+대/NNG/*+역/NNG/*,Place-station
부산신항역,0,0,0,NNP,지명,,부산신항역,Compound,*,*,부산+신항+역,부산/NNP/지명+신항/NNP/지명+역/NNG/*,Place-station
부천시청역,0,0,0,NNP,지명,,부천시청역,Compound,*,*,부천+시청+역,부천/NNP/지명+시청/NNG/*+역/NNG/*,Place-station
부평구청역,0,0,0,NNP,지명,,부평구청역,Compound,*,*,부평+구청+역,부평/NNP/지명+구청/NNG/*+역/NNG/*,Place-station
부평삼거리역,0,0,0,NNP,지명,,부평삼거리역,Compound,*,*,부평+삼+거리+역,부평/NNP/지명+삼/NNG/*+거리/NNG/*+역/NNG/*,Place-station
부평시장역,0,0,0,NNP,지명,,부평시장역,Compound,*,*,부평+시장+역,부평/NNP/지명+시장/NNG/*+역/NNG/*,Place-station
북구청역,0,0,0,NNP,지명,,북구청역,Compound,*,*,북+구청+역,북/NNG/*+구청/NNG/*+역/NNG/*,Place-station
북송정,0,0,0,NNP,지명,,북송정,*,*,*,*,*,Place
북송정역,0,0,0,NNP,지명,,북송정역,Compound,*,*,북송정+역,북송정/NNP/지명+역/NNG/*,Place-station
북영주,0,0,0,NNP,지명,,북영주,*,*,*,*,*,Place
북영주역,0,0,0,NNP,지명,,북영주역,Compound,*,*,북영주+역,북영주/NNP/지명+역/NNG/*,Place-station
북영천,0,0,0,NNP,지명,,북영천,*,*,*,*,*,Place
북영천역,0,0,0,NNP,지명,,북영천역,Compound,*,*,북영천+역,북영천/NNP/지명+역/NNG/*,Place-station
북전주,0,0,0,NNP,지명,,북전주,*,*,*,*,*,Place
북전주역,0,0,0,NNP,지명,,북전주역,Compound,*,*,북전주+역,북전주/NNP/지명+역/NNG/*,Place-station
북철송장역,0,0,0,NNP,지명,,북철송장역,Compound,*,*,북+철+송장+역,북/NNG/*+철/NNG/*+송장/NNG/*+역/NNG/*,Place-station
삼각지역,0,0,0,NNP,지명,,삼각지역,Compound,*,*,삼각+지+역,삼각/NNG/*+지/NNG/*+역/NNG/*,Place-station
삼랑진역,0,0,0,NNP,지명,,삼랑진역,Compound,*,*,삼랑+진+역,삼랑/NNG/*+진/NNG/*+역/NNG/*,Place-station
삼산체육관역,0,0,0,NNP,지명,,삼산체육관역,Compound,*,*,삼산+체육+관+역,삼산/NNG/*+체육/NNG/*+관/NNG/*+역/NNG/*,Place-station
삼척해변역,0,0,0,NNP,지명,,삼척해변역,Compound,*,*,삼척+해변+역,삼척/NNP/지명+해변/NNG/*+역/NNG/*,Place-station
상록수역,0,0,0,NNP,지명,,상록수역,Compound,*,*,상록+수+역,상록/NNG/*+수/NNG/*+역/NNG/*,Place-station
상일동역,0,0,0,NNP,지명,,상일동역,Compound,*,*,상일+동+역,상일/NNP/지명+동/NNG/*+역/NNG/*,Place-station
새말,0,0,0,NNP,지명,,새말,*,*,*,*,*,Place
새말역,0,0,0,NNP,지명,,새말역,Compound,*,*,새말+역,새말/NNP/지명+역/NNG/*,Place-station
새절,0,0,0,NNP,지명,,새절,*,*,*,*,*,Place
새절역,0,0,0,NNP,지명,,새절역,Compound,*,*,새+절+역,새/MM/~명사+절/NNG/*+역/NNG/*,Place-station
샛강역,0,0,0,NNP,지명,,샛강역,Compound,*,*,샛강+역,샛강/NNG/*+역/NNG/*,Place-station
서강대역,0,0,0,NNP,지명,,서강대역,Compound,*,*,서강+대+역,서강/NNP/지명+대/NNG/*+역/NNG/*,Place-station
서대전,0,0,0,NNP,지명,,서대전,*,*,*,*,*,Place
서대전네거리역,0,0,0,NNP,지명,,서대전네거리역,Compound,*,*,서대전+네+거리+역,서대전/NNP/지명+네/NNG/*+거리/NNG/*+역/NNG/*,Place-station
서대전역,0,0,0,NNP,지명,,서대전역,Compound,*,*,서대전+역,서대전/NNP/지명+역/NNG/*,Place-station
서동탄,0,0,0,NNP,지명,,서동탄,*,*,*,*,*,Place
서동탄역,0,0,0,NNP,지명,,서동탄역,Compound,*,*,서동탄+역,서동탄/NNP/*+역/NNG/*,Place-station
서문시장역,0,0,0,NNP,지명,,서문시장역,Compound,*,*,서문+시장+역,서문/NNG/*+시장/NNG/*+역/NNG/*,Place-station
서부산,0,0,0,NNP,지명,,서부산,*,*,*,*,*,Place
서부산유통지구역,0,0,0,NNP,지명,,서부산유통지구역,Compound,*,*,서부산+유통+지구+역,서부산/XPN/지명+유통/NNG/*+지구/NNG/*+역/NNG/*,Place-station
서빙고역,0,0,0,NNP,지명,,서빙고역,Compound,*,*,서+빙고+역,서/NNG/*+빙고/NNG/*+역/NNG/*,Place-station
서울대입구역,0,0,0,NNP,지명,,서울대입구역,Compound,*,*,서울+대+입구+역,서울/NNG/*+대/NNG/*+입구/NNG/*+역/NNG/*,Place-station
서원주,0,0,0,NNP,지명,,서원주,*,*,*,*,*,Place
서원주역,0,0,0,NNP,지명,,서원주역,Compound,*,*,서원주+역,서원주/NNP/지명+역/NNG/*,Place-station
서정리역,0,0,0,NNP,지명,,서정리역,Compound,*,*,서정+리+역,서정/NNP/지명+리/NNG/*+역/NNG/*,Place-station
선바위역,0,0,0,NNP,지명,,선바위역,Compound,*,*,선+바위+역,선/NNG/*+바위/NNG/*+역/NNG/*,Place-station
선유도역,0,0,0,NNP,지명,,선유도역,Compound,*,*,선유+도+역,선유/NNG/*+도/NNG/*+역/NNG/*,Place-station
성균관대역,0,0,0,NNP,지명,,성균관대역,Compound,*,*,성균관+대+역,성균관/NNP/*+대/NNG/*+역/NNG/*,Place-station
성당못역,0,0,0,NNP,지명,,성당못역,Compound,*,*,성당+못+역,성당/NNG/*+못/NNG/*+역/NNG/*,Place-station
성서산업단지역,0,0,0,NNP,지명,,성서산업단지역,Compound,*,*,성서+산업+단지+역,성서/NNP/지명+산업/NNG/*+단지/NNG/*+역/NNG/*,Place-station
성신여대입구역,0,0,0,NNP,지명,,성신여대입구역,Compound,*,*,성신+여대+입구+역,성신/NNG/*+여대/NNG/*+입구/NNG/*+역/NNG/*,Place-station
성주사역,0,0,0,NNP,지명,,성주사역,Compound,*,*,성주+사+역,성주/NNG/*+사/NNG/*+역/NNG/*,Place-station
센텀시티역,0,0,0,NNP,지명,,센텀시티역,Compound,*,*,센텀+시티+역,센텀/NNP/*+시티/NNG/*+역/NNG/*,Place-station
센트럴파크역,0,0,0,NNP,지명,,센트럴파크역,Compound,*,*,센트럴+파크+역,센트럴/NNP/지명+파크/NNG/*+역/NNG/*,Place-station
소래포구역,0,0,0,NNP,지명,,소래포구역,Compound,*,*,소래+포구+역,소래/NNP/지명+포구/NNG/*+역/NNG/*,Place-station
소요산역,0,0,0,NNP,지명,,소요산역,Compound,*,*,소요+산+역,소요/NNG/*+산/NNG/*+역/NNG/*,Place-station
소정리역,0,0,0,NNP,지명,,소정리역,Compound,*,*,소정+리+역,소정/NNP/지명+리/NNG/*+역/NNG/*,Place-station
솔안,0,0,0,NNP,지명,,솔안,*,*,*,*,*,Place
솔안역,0,0,0,NNP,지명,,솔안역,Compound,*,*,솔안+역,솔안/NNP/지명+역/NNG/*,Place-station
송정공원역,0,0,0,NNP,지명,,송정공원역,Compound,*,*,송정+공원+역,송정/NNP/지명+공원/NNG/*+역/NNG/*,Place-station
수락산역,0,0,0,NNP,지명,,수락산역,Compound,*,*,수락+산+역,수락/NNP/지명+산/NNG/*+역/NNG/*,Place-station
수로왕릉역,0,0,0,NNP,지명,,수로왕릉역,Compound,*,*,수로+왕+릉+역,수로/NNG/*+왕/NNG/*+릉/NNG/*+역/NNG/*,Place-station
수성구민운동장입구역,0,0,0,NNP,지명,,수성구민운동장입구역,Compound,*,*,수성+구민+운동+장입+구+역,수성/NNP/지명+구민/NNG/*+운동/NNG/*+장/NNG/*+입구/NNG/*+역/NNG/*,Place-station
수성구청역,0,0,0,NNP,지명,,수성구청역,Compound,*,*,수성+구청+역,수성/NNP/지명+구청/NNG/*+역/NNG/*,Place-station
수성못역,0,0,0,NNP,지명,,수성못역,Compound,*,*,수성+못+역,수성/NNP/지명+못/NNG/*+역/NNG/*,Place-station
수성시장역,0,0,0,NNP,지명,,수성시장역,Compound,*,*,수성+시장+역,수성/NNP/지명+시장/NNG/*+역/NNG/*,Place-station
수원시청역,0,0,0,NNP,지명,,수원시청역,Compound,*,*,수원+시청+역,수원/NNP/지명+시청/NNG/*+역/NNG/*,Place-station
숙대,0,0,0,NNP,지명,,숙대,*,*,*,*,*,Place
숙대입구역,0,0,0,NNP,지명,,숙대입구역,Compound,*,*,숙대+입구+역,숙대/NNP/지명+입구/NNG/*+역/NNG/*,Place-station
숙등,0,0,0,NNP,지명,,숙등,*,*,*,*,*,Place
숙등역,0,0,0,NNP,지명,,숙등역,Compound,*,*,숙+등+역,숙등/NNP/지명+역/NNG/*,Place-station
숭실대,0,0,0,NNP,*,,숭실대,Compound,*,*,숭실+대,숭실/NNP/*+대/NNG/*
숭실대입구역,0,0,0,NNP,지명,,숭실대입구역,Compound,*,*,숭실+대+입구+역,숭실/NNP/*+대/NNG/*+입구/NNG/*+역/NNG/*,Place-station
시립미술관역,0,0,0,NNP,지명,,시립미술관역,Compound,*,*,시립+미술+관+역,시립/NNG/*+미술/NNG/*+관/NNG/*+역/NNG/*,Place-station
신광양항역,0,0,0,NNP,지명,,신광양항역,Compound,*,*,신+광양+항+역,신/NNG/*+광양/NNP/지명+항/NNG/*+역/NNG/*,Place-station
신길온천역,0,0,0,NNP,지명,,신길온천역,Compound,*,*,신길+온천+역,신길/NNP/지명+온천/NNG/*+역/NNG/*,Place-station
신논현,0,0,0,NNP,지명,,신논현,*,*,*,*,*,Place
신논현역,0,0,0,NNP,지명,,신논현역,Compound,*,*,신논현+역,신논현/NNP/지명+역/NNG/*,Place-station
신당역,0,0,0,NNP,지명,,신당역,Compound,*,*,신당+역,신당/NNP/지명+역/NNG/*,Place-station
신대방삼거리역,0,0,0,NNP,지명,,신대방삼거리역,Compound,*,*,신대방+삼+거리+역,신대방/NNP/지명+삼/NNG/*+거리/NNG/*+역/NNG/*,Place-station
신동화물역,0,0,0,NNP,지명,,신동화물역,Compound,*,*,신동+화물+역,신동/NNP/지명+화물/NNG/*+역/NNG/*,Place-station
신망리,0,0,0,NNP,지명,,신망리,*,*,*,*,*,Place
신망리역,0,0,0,NNP,지명,,신망리역,Compound,*,*,신망리+역,신망리/NNP/지명+역/NNG/*,Place-station
신목동,0,0,0,NNP,지명,,신목동,*,*,*,*,*,Place
신목동역,0,0,0,NNP,지명,,신목동역,Compound,*,*,신목동+역,신목동/NNP/지명+역/NNG/*,Place-station
신반포,0,0,0,NNP,지명,,신반포,*,*,*,*,*,Place
신반포역,0,0,0,NNP,지명,,신반포역,Compound,*,*,신반포+역,신반포/NNP/지명+역/NNG/*,Place-station
신방화,0,0,0,NNP,지명,,신방화,*,*,*,*,*,Place
신방화역,0,0,0,NNP,지명,,신방화역,Compound,*,*,신방화+역,신방화/NNP/지명+역/NNG/*,Place-station
신선대,0,0,0,NNP,지명,,신선대,*,*,*,*,*,Place
신선대역,0,0,0,NNP,지명,,신선대역,Compound,*,*,신+선대+역,신선대/NNP/지명+역/NNG/*,Place-station
신설동역,0,0,0,NNP,지명,,신설동역,Compound,*,*,신설+동+역,신설/NNP/지명+동/NNG/*+역/NNG/*,Place-station
신연수,0,0,0,NNP,지명,,신연수,*,*,*,*,*,Place
신연수역,0,0,0,NNP,지명,,신연수역,Compound,*,*,신연수+역,신연수/NNP/지명+역/NNG/*,Place-station
신용산,0,0,0,NNP,지명,,신용산,*,*,*,*,*,Place
신용산역,0,0,0,NNP,지명,,신용산역,Compound,*,*,신용산+역,신용산/NNP/지명+역/NNG/*,Place-station
신이문,0,0,0,NNP,지명,,신이문,*,*,*,*,*,Place
신이문역,0,0,0,NNP,지명,,신이문역,Compound,*,*,신+이문+역,신이문/NNP/지명+역/NNG/*,Place-station
신정네거리역,0,0,0,NNP,지명,,신정네거리역,Compound,*,*,신정+네+거리+역,신정/NNP/지명+네/NNG/*+거리/NNP/지명+역/NNG/*,Place-station
신중동,0,0,0,NNP,지명,,신중동,*,*,*,*,*,Place
신중동역,0,0,0,NNP,지명,,신중동역,Compound,*,*,신+중동+역,신중동/NNP/지명+역/NNG/*,Place-station
신탄,0,0,0,NNP,지명,,신탄,*,*,*,*,*,Place
신탄리역,0,0,0,NNP,지명,,신탄리역,Compound,*,*,신탄+리+역,신탄/NNP/지명+리/NNG/*+역/NNG/*,Place-station
아양교,0,0,0,NNP,지명,,아양교,Compound,*,*,아양+교,아양/NNP/지명+교/NNG/*,Place
아양교역,0,0,0,NNP,지명,,아양교역,Compound,*,*,아양+교+역,아양/NNP/지명+교/NNG/*+역/NNG/*,Place-station
안암,0,0,0,NNP,지명,,안암,*,*,*,*,*,Place
안암역,0,0,0,NNP,지명,,안암역,Compound,*,*,안암+역,안암/NNP/지명+역/NNG/*,Place-station
안지랑,0,0,0,NNP,지명,,안지랑,*,*,*,*,*,Place
안지랑역,0,0,0,NNP,지명,,안지랑역,Compound,*,*,안지랑+역,안지/NNP/지명+역/NNG/*,Place-station
양동시장역,0,0,0,NNP,지명,,양동시장역,Compound,*,*,양동+시장+역,양동/NNP/지명+시장/NNG/*+역/NNG/*,Place-station
양산화물역,0,0,0,NNP,지명,,양산화물역,Compound,*,*,양산+화물+역,양산/NNP/지명+화물/NNG/*+역/NNG/*,Place-station
양자동,0,0,0,NNP,지명,,양자동,*,*,*,*,*,Place
양자동역,0,0,0,NNP,지명,,양자동역,Compound,*,*,양자동+역,양자동/NNP/지명+역/NNG/*,Place-station
양재시민의숲역,0,0,0,NNP,지명,,양재시민의숲역,Preanalysis,*,*,양재+시민+의+숲+역,양재/NNP/지명+시민/NNG/*+의/JKG/*+숲/NNG/*+역/NNG/*,Place-station
양천구청역,0,0,0,NNP,지명,,양천구청역,Compound,*,*,양천+구청+역,양천/NNP/지명+구청/NNG/*+역/NNG/*,Place-station
양천향교역,0,0,0,NNP,지명,,양천향교역,Compound,*,*,양천+향교+역,양천/NNP/지명+향교/NNG/*+역/NNG/*,Place-station
양학동역,0,0,0,NNP,지명,,양학동역,Compound,*,*,양학+동+역,양학/NNP/지명+동/NNG/*+역/NNG/*,Place-station
어등,0,0,0,NNP,지명,,어등,*,*,*,*,*,Place
어등역,0,0,0,NNP,지명,,어등역,Compound,*,*,어등+역,어등/NNP/지명+역/NNG/*,Place-station
어린이대공원역,0,0,0,NNP,지명,,어린이대공원역,Compound,*,*,어린이+대+공원+역,어린이/NNG/*+대/NNG/*+공원/NNG/*+역/NNG/*,Place-station
어린이회관역,0,0,0,NNP,지명,,어린이회관역,Compound,*,*,어린이+회관+역,어린이/NNG/*+회관/NNG/*+역/NNG/*,Place-station
업동,0,0,0,NNP,지명,,업동,*,*,*,*,*,Place
업동역,0,0,0,NNP,지명,,업동역,Compound,*,*,업동+역,업동/NNP/지명+역/NNG/*,Place-station
여의나루,0,0,0,NNP,지명,,여의나루,*,*,*,*,*,Place
여의나루역,0,0,0,NNP,지명,,여의나루역,Compound,*,*,여의나루+역,여의나루/NNP/지명+역/NNG/*,Place-station
연무대역,0,0,0,NNP,지명,,연무대역,Compound,*,*,연무+대+역,연무/NNG/*+대/NNG/*+역/NNG/*,Place-station
연신내,0,0,0,NNP,지명,,연신내,*,*,*,*,*,Place
연신내역,0,0,0,NNP,지명,,연신내역,Compound,*,*,연신내+역,연신내/NNP/지명+역/NNG/*,Place-station
연지공원역,0,0,0,NNP,지명,,연지공원역,Compound,*,*,연지+공원+역,연지/NNG/*+공원/NNG/*+역/NNG/*,Place-station
영남대,0,0,0,NNP,*,,영남대,Compound,*,*,영남+대,영남/NNP/지명+대/NNG/*
영남대역,0,0,0,NNP,지명,,영남대역,Compound,*,*,영남+대+역,영남/NNP/지명+대/NNG/*+역/NNG/*,Place-station
영대병원역,0,0,0,NNP,지명,,영대병원역,Compound,*,*,영대+병원+역,영대/NNP/지명+병원/NNG/*+역/NNG/*,Place-station
영등포구청역,0,0,0,NNP,지명,,영등포구청역,Compound,*,*,영등포+구청+역,영등포/NNP/지명+구청/NNG/*+역/NNG/*,Place-station
영등포시장역,0,0,0,NNP,지명,,영등포시장역,Compound,*,*,영등포+시장+역,영등포/NNP/지명+시장/NNG/*+역/NNG/*,Place-station
영산대역,0,0,0,NNP,지명,,영산대역,Compound,*,*,영산+대+역,영산/NNP/지명+대/NNG/*+역/NNG/*,Place-station
예술회관역,0,0,0,NNP,지명,,예술회관역,Compound,*,*,예술+회관+역,예술/NNG/*+회관/NNG/*+역/NNG/*,Place-station
오근장,0,0,0,NNP,지명,,오근장,*,*,*,*,*,Place
오근장역,0,0,0,NNP,지명,,오근장역,Compound,*,*,오근장+역,오근장/NNP/지명+역/NNG/*,Place-station
오류동역,0,0,0,NNP,지명,,오류동역,Compound,*,*,오류+동+역,오류/NNP/지명+동/NNG/*+역/NNG/*,Place-station
오목교,0,0,0,NNP,지명,,오목교,*,*,*,*,*,Place
오목교역,0,0,0,NNP,지명,,오목교역,Compound,*,*,오목교+역,오목교/NNP/지명+역/NNG/*,Place-station
오산대역,0,0,0,NNP,지명,,오산대역,Compound,*,*,오+산대+역,오/NR/*+산대/NNP/지명+역/NNG/*,Place-station
오산리역,0,0,0,NNP,지명,,오산리역,Compound,*,*,오산+리+역,오산/NNP/지명+리/NNG/*+역/NNG/*,Place-station
오이도역,0,0,0,NNP,지명,,오이도역,Compound,*,*,오이도+역,오이도/NNP/지명+역/NNG/*,Place-station
온양온천역,0,0,0,NNP,지명,,온양온천역,Compound,*,*,온양+온천+역,온양/NNP/지명+온천/NNG/*+역/NNG/*,Place-station
온천장역,0,0,0,NNP,지명,,온천장역,Compound,*,*,온천+장+역,온천/NNG/*+장/NNG/*+역/NNG/*,Place-station
올림픽공원역,0,0,0,NNP,지명,,올림픽공원역,Compound,*,*,올림픽+공원+역,올림픽/NNP/*+공원/NNG/*+역/NNG/*,Place-station
왕십리역,0,0,0,NNP,지명,,왕십리역,Compound,*,*,왕십리+역,왕십리/NNP/지명+역/NNG/*,Place-station
외대앞역,0,0,0,NNP,지명,,외대앞역,Compound,*,*,외대+앞+역,외대/NNG/*+앞/NNG/*+역/NNG/*,Place-station
울산항역,0,0,0,NNP,지명,,울산항역,Compound,*,*,울산+항+역,울산/NNP/지명+항/NNG/*+역/NNG/*,Place-station
월드컵경기장역,0,0,0,NNP,지명,,월드컵경기장역,Compound,*,*,월드+컵+경기+장+역,월드/NNG/*+컵/NNG/*+경기/NNG/*+장/NNG/*+역/NNG/*,Place-station
월배,0,0,0,NNP,지명,,월배,*,*,*,*,*,Place
월배역,0,0,0,NNP,지명,,월배역,Compound,*,*,월배+역,월배/NNP/지명+역/NNG/*,Place-station
유성온천역,0,0,0,NNP,지명,,유성온천역,Compound,*,*,유성+온천+역,유성/NNP/지명+온천/NNP/지명+역/NNG/*,Place-station
을지로3가역,0,0,0,NNP,지명,,을지로3가역,Compound,*,*,을지로+3+가+역,을지로/NNP/지명+3/SN/*+가/XSN/*+역/NNG/*,Place-station
을지로4가역,0,0,0,NNP,지명,,을지로4가역,Compound,*,*,을지로+4+가+역,을지로/NNG/지명+4/SN/*+가/XSN/*+역/NNG/*,Place-station
을지로입구역,0,0,0,NNP,지명,,을지로입구역,Compound,*,*,을지로+입구+역,을지로/NNP/지명+입구/NNG/*+역/NNG/*,Place-station
의정부시청역,0,0,0,NNP,지명,,의정부시청역,Compound,*,*,의정부+시청+역,의정부/NNP/지명+시청/NNG/*+역/NNG/*,Place-station
의정부중앙역,0,0,0,NNP,지명,,의정부중앙역,Compound,*,*,의정부+중앙+역,의정부/NNP/지명+중앙/NNP/지명+역/NNG/*,Place-station
인덕원,0,0,0,NNP,지명,,인덕원,*,*,*,*,*,Place
인덕원역,0,0,0,NNP,지명,,인덕원역,Compound,*,*,인덕원+역,인덕원/NNP/지명+역/NNG/*,Place-station
인제대역,0,0,0,NNP,지명,,인제대역,Compound,*,*,인제+대+역,인제/NNP/지명+대/NNG/*+역/NNG/*,Place-station
인천국제공항역,0,0,0,NNP,지명,,인천국제공항역,Compound,*,*,인천+국제+공항+역,인천/NNP/지명+국제/NNG/*+공항/NNG/*+역/NNG/*,Place-station
인천논현역,0,0,0,NNP,지명,,인천논현역,Compound,*,*,인천+논현+역,인천/NNP/지명+논현/NNP/지명+역/NNG/*,Place-station
인천대입구역,0,0,0,NNP,지명,,인천대입구역,Compound,*,*,인천+대+입구+역,인천/NNP/지명+대/NNG/*+입구/NNG/*+역/NNG/*,Place-station
인천시청역,0,0,0,NNP,지명,,인천시청역,Compound,*,*,인천+시청+역,인천/NNP/지명+시청/NNG/*+역/NNG/*,Place-station
인천터미널역,0,0,0,NNP,지명,,인천터미널역,Compound,*,*,인천+터미널+역,인천/NNP/지명+터미널/NNG/*+역/NNG/*,Place-station
일로역,0,0,0,NNP,지명,,일로역,Compound,*,*,일로+역,일/NNP/지명+역/NNG/*,Place-station
임성리역,0,0,0,NNP,지명,,임성리역,Compound,*,*,임성+리+역,임성/NNP/지명+리/NNG/*+역/NNG/*,Place-station
임진강역,0,0,0,NNP,지명,,임진강역,Compound,*,*,임진+강+역,임진/NNG/*+강/NNG/*+역/NNG/*,Place-station
입석리역,0,0,0,NNP,지명,,입석리역,Compound,*,*,입석+리+역,입석/NNP/지명+리/NNG/*+역/NNG/*,Place-station
자미원역,0,0,0,NNP,지명,,자미원역,Compound,*,*,자미+원+역,자미/NNG/*+원/NNG/*+역/NNG/*,Place-station
잠실나루역,0,0,0,NNP,지명,,잠실나루역,Compound,*,*,잠실+나루+역,잠실/NNP/지명+나루/NNG/*+역/NNG/*,Place-station
장생포역,0,0,0,NNP,지명,,장생포역,Compound,*,*,장생+포+역,장생/NNG/*+포/NNG/*+역/NNG/*,Place-station
장성화물역,0,0,0,NNP,지명,,장성화물역,Compound,*,*,장성+화물+역,장성/NNG/*+화물/NNG/*+역/NNG/*,Place-station
장승배기역,0,0,0,NNP,지명,,장승배기역,Compound,*,*,장승+배기+역,장승/NNG/*+배기/XSN/*+역/NNG/*,Place-station
장신,0,0,0,NNP,*,,장신,*,*,*,*,*
장신대역,0,0,0,NNP,지명,,장신대역,Compound,*,*,장신+대+역,장신/NNP/*+대/NNG/*+역/NNG/*,Place-station
장한평,0,0,0,NNP,지명,,장한평,*,*,*,*,*,Place
장한평역,0,0,0,NNP,지명,,장한평역,Compound,*,*,장한+평+역,장한/VA+ETM/*+평/NNG/*+역/NNG/*,Place-station
장항,0,0,0,NNP,지명,,장항,*,*,*,*,*,Place
장항역,0,0,0,NNP,지명,,장항역,Compound,*,*,장항+역,장항/NNP/지명+역/NNG/*,Place-station
장항화물역,0,0,0,NNP,지명,,장항화물역,Compound,*,*,장항+화물+역,장항/NNP/지명+화물/NNG/*+역/NNG/*,Place-station
정부과천청사역,0,0,0,NNP,지명,,정부과천청사역,Compound,*,*,정부+과천+청사+역,정부/NNG/*+과천/NNP/지명+청사/NNG/*+역/NNG/*,Place-station
정부청사역,0,0,0,NNP,지명,,정부청사역,Compound,*,*,정부+청사+역,정부/NNG/*+청사/NNG/*+역/NNG/*,Place-station
정왕역,0,0,0,NNP,지명,,정왕역,Compound,*,*,정왕+역,정왕/NNP/지명+역/NNG/*,Place-station
제기동역,0,0,0,NNP,지명,,제기동역,Compound,*,*,제기+동+역,제기/NNP/지명+동/NNG/*+역/NNG/*,Place-station
제물포,0,0,0,NNP,지명,,제물포,*,*,*,*,*,Place
제물포역,0,0,0,NNP,지명,,제물포역,Compound,*,*,제물포+역,제물포/NNP/지명+역/NNG/*,Place-station
제천조차장역,0,0,0,NNP,지명,,제천조차장역,Compound,*,*,제천+조차+장+역,제천/NNP/지명+조차/NNG/*+장/NNG/*+역/NNG/*,Place-station
조치원역,0,0,0,NNP,지명,,조치원역,Compound,*,*,조치+원+역,조치/NNG/*+원/NNG/*+역/NNG/*,Place-station
종로3가역,0,0,0,NNP,지명,,종로3가역,Compound,*,*,종로+3+가+역,종로/NNP/지명+3/SN/*+가/XSN/*+역/NNG/*,Place-station
종로5가역,0,0,0,NNP,지명,,종로5가역,Compound,*,*,종로+5+가+역,종로/NNP/지명+5/SN/*+가/XSN/*+역/NNG/*,Place-station
종합운동장역,0,0,0,NNP,지명,,종합운동장역,Compound,*,*,종합+운동+장+역,종합/NNG/*+운동/NNG/*+장/NNG/*+역/NNG/*,Place-station
죽림온천역,0,0,0,NNP,지명,,죽림온천역,Compound,*,*,죽림+온천+역,죽림/NNG/*+온천/NNG/*+역/NNG/*,Place-station
중구청역,0,0,0,NNP,지명,,중구청역,Compound,*,*,중+구청+역,중/NNG/*+구청/NNG/*+역/NNG/*,Place-station
중앙로역,0,0,0,NNP,지명,,중앙로역,Compound,*,*,중앙+로+역,중앙/NNG/*+로/NNG/*+역/NNG/*,Place-station
지게골역,0,0,0,NNP,지명,,지게골역,Compound,*,*,지게+골+역,지게/NNG/*+골/NNG/*+역/NNG/*,Place-station
지식정보단지역,0,0,0,NNP,지명,,지식정보단지역,Compound,*,*,지식+정보+단지+역,지식/NNG/*+정보/NNG/*+단지/NNG/*+역/NNG/*,Place-station
창교,0,0,0,NNP,지명,,창교,*,*,*,*,*,Place
창교역,0,0,0,NNP,지명,,창교역,Compound,*,*,창교+역,창교/NNP/지명+역/NNG/*,Place-station
창신역,0,0,0,NNP,지명,,창신역,Compound,*,*,창신+역,창신/NNP/지명+역/NNG/*,Place-station
천마산역,0,0,0,NNP,지명,,천마산역,Compound,*,*,천마+산+역,천마/NNG/*+산/NNG/*+역/NNG/*,Place-station
천안아산역,0,0,0,NNP,지명,,천안아산역,Compound,*,*,천안+아산+역,천안/NNP/지명+아산/NNP/지명+역/NNG/*,Place-station
청계산입구역,0,0,0,NNP,지명,,청계산입구역,Compound,*,*,청계산+입구+역,청계산/NNP/지명+입구/NNG/*+역/NNG/*,Place-station
청라국제도시역,0,0,0,NNP,지명,,청라국제도시역,Compound,*,*,청라+국제+도시+역,청라/NNG/*+국제/NNG/*+도시/NNG/*+역/NNG/*,Place-station
청령포역,0,0,0,NNP,지명,,청령포역,Compound,*,*,청령+포+역,청령/NNG/*+포/NNG/*+역/NNG/*,Place-station
청주공항역,0,0,0,NNP,지명,,청주공항역,Compound,*,*,청주+공항+역,청주/NNP/지명+공항/NNP/지명+역/NNG/*,Place-station
체육공원역,0,0,0,NNP,지명,,체육공원역,Compound,*,*,체육+공원+역,체육/NNG/*+공원/NNG/*+역/NNG/*,Place-station
초성리역,0,0,0,NNP,지명,,초성리역,Compound,*,*,초성+리+역,초성/NNP/지명+리/NNG/*+역/NNG/*,Place-station
추풍령역,0,0,0,NNP,지명,,추풍령역,Compound,*,*,추풍+령+역,추풍/NNG/*+령/NNG/*+역/NNG/*,Place-station
충렬사역,0,0,0,NNP,지명,,충렬사역,Compound,*,*,충렬+사+역,충렬/NNG/*+사/NNG/*+역/NNG/*,Place-station
충무로역,0,0,0,NNP,지명,,충무로역,Compound,*,*,충무+로+역,충무/NNP/지명+로/NNG/*+역/NNG/*,Place-station
충정로역,0,0,0,NNP,지명,,충정로역,Compound,*,*,충정+로+역,충정/NNG/*+로/JKB/*+역/NNG/*,Place-station
치악,0,0,0,NNP,지명,,치악,*,*,*,*,*,Place
치악역,0,0,0,NNP,지명,,치악역,Compound,*,*,치악+역,치악/NNP/지명+역/NNG/*,Place-station
칠곡경대병원역,0,0,0,NNP,지명,,칠곡경대병원역,Compound,*,*,칠곡+경대+병원+역,칠곡/NNP/지명+경대/NNG/*+병원/NNP/지명+역/NNG/*,Place-station
칠성시장역,0,0,0,NNP,지명,,칠성시장역,Compound,*,*,칠성+시장+역,칠성/NNG/*+시장/NNG/*+역/NNG/*,Place-station
캠퍼스타운역,0,0,0,NNP,지명,,캠퍼스타운역,Compound,*,*,캠퍼스+타운+역,캠퍼스/NNG/*+타운/NNG/*+역/NNG/*,Place-station
큰고개역,0,0,0,NNP,지명,,큰고개역,Preanalysis,*,*,큰+고개+역,큰/VA+ETM/*+고개/NNG/*+역/NNG/*,Place-station
탑석,0,0,0,NNP,지명,,탑석,*,*,*,*,*,Place
탑석역,0,0,0,NNP,지명,,탑석역,Compound,*,*,탑석+역,탑석/NNP/지명+역/NNG/*,Place-station
태릉입구역,0,0,0,NNP,지명,,태릉입구역,Compound,*,*,태릉+입구+역,태릉/NNG/*+입구/NNG/*+역/NNG/*,Place-station
태화강역,0,0,0,NNP,지명,,태화강역,Compound,*,*,태화+강+역,태화/NNG/*+강/NNG/*+역/NNG/*,Place-station
테크노파크역,0,0,0,NNP,지명,,테크노파크역,Compound,*,*,테크노+파크+역,테/NNP/*+파크/NNG/*+역/NNG/*,Place-station
팔거,0,0,0,NNP,지명,,팔거,*,*,*,*,*,Place
팔거역,0,0,0,NNP,지명,,팔거역,Compound,*,*,팔거+역,팔거/NNP/지명+역/NNG/*,Place-station
팔달시장역,0,0,0,NNP,지명,,팔달시장역,Compound,*,*,팔달+시장+역,팔달/NNG/*+시장/NNG/*+역/NNG/*,Place-station
평내호평역,0,0,0,NNP,지명,,평내호평역,Compound,*,*,평내+호평+역,평내/NNP/지명+호평/NNP/지명+역/NNG/*,Place-station
하고사리역,0,0,0,NNP,지명,,하고사리역,Compound,*,*,하고사+리+역,하고사/NNP/지명+리/NNG/*+역/NNG/*,Place-station
한강진역,0,0,0,NNP,지명,,한강진역,Compound,*,*,한강+진+역,한강/NNG/*+진/NNG/*+역/NNG/*,Place-station
한대,0,0,0,NNP,지명,,한대,*,*,*,*,*,Place
한대앞역,0,0,0,NNP,지명,,한대앞역,Compound,*,*,한대+앞+역,한대/NNP/지명+앞/NNG/*+역/NNG/*,Place-station
한림정,0,0,0,NNP,지명,,한림정,*,*,*,*,*,Place
한림정역,0,0,0,NNP,지명,,한림정역,Compound,*,*,한림+정+역,한림/NNG/*+정/NNG/*+역/NNG/*,Place-station
한성대입구역,0,0,0,NNP,지명,,한성대입구역,Compound,*,*,한성+대+입구+역,한성/NNP/지명+대/NNG/*+입구/NNG/*+역/NNG/*,Place-station
한양대,0,0,0,NNP,지명,,한양대,Compound,*,*,한양+대,한양/NNP/지명+대/NNG/*,Place
한양대역,0,0,0,NNP,지명,,한양대역,Compound,*,*,한양+대+역,한양/NNP/지명+대/NNG/*+역/NNG/*,Place-station
한탄강역,0,0,0,NNP,지명,,한탄강역,Compound,*,*,한탄+강+역,한탄/NNP/지명+강/NNG/*+역/NNG/*,Place-station
함백,0,0,0,NNP,지명,,함백,*,*,*,*,*,Place
함백역,0,0,0,NNP,지명,,함백역,Compound,*,*,함백+역,함백/NNP/지명+역/NNG/*,Place-station
해운대역,0,0,0,NNP,지명,,해운대역,Compound,*,*,해운+대+역,해운/NNG/*+대/NNG/*+역/NNG/*,Place-station
현충로역,0,0,0,NNP,지명,,현충로역,Compound,*,*,현충+로+역,현충/NNG/*+로/JKB/*+역/NNG/*,Place-station
현충원,0,0,0,NNP,지명,,현충원,*,*,*,*,*,Place
현충원역,0,0,0,NNP,지명,,현충원역,Compound,*,*,현충원+역,현충원/NNP/지명+역/NNG/*,Place-station
호구포역,0,0,0,NNP,지명,,호구포역,Compound,*,*,호구+포+역,호구/NNG/*+포/NNG/*+역/NNG/*,Place-station
홍대,0,0,0,NNP,지명,,홍대,*,*,*,*,*,Place
홍대입구역,0,0,0,NNP,지명,,홍대입구역,Compound,*,*,홍대+입구+역,홍대/NNP/지명+입구/NNG/*+역/NNG/*,Place-station
화랑대역,0,0,0,NNP,지명,,화랑대역,Compound,*,*,화랑+대+역,화랑/NNG/*+대/NNG/*+역/NNG/*,Place-station
효창공원앞역,0,0,0,NNP,지명,,효창공원앞역,Compound,*,*,효창+공원+앞+역,효창/NNP/지명+공원/NNG/*+앞/NNG/*+역/NNG/*,Place-station
흑석리역,0,0,0,NNP,지명,,흑석리역,Compound,*,*,흑석+리+역,흑석/NNP/지명+리/NNG/*+역/NNG/*,Place-station
흥국사역,0,0,0,NNP,지명,,흥국사역,Compound,*,*,흥국+사+역,흥국/NNG/*+사/NNG/*+역/NNG/*,Place-station
희방사역,0,0,0,NNP,지명,,희방사역,Compound,*,*,희방+사+역,희방/NNG/*+사/NNG/*+역/NNG/*,Place-station
경성대·부경대역,0,0,0,NNP,지명,,경성대·부경대역,Preanalysis,*,*,경성+대+·+부경+대+역,경성/NNP/지명+대/NNG/*+·/SC/*+부경/NNP/지명+대/NNG/*+역/NNG/*,Place-station
경성대부경대역,0,0,0,NNP,지명,,경성대부경대역,Compound,*,*,경성+대+부경+대+역,경성/NNP/지명+대/NNG/*+부경/NNP/지명+대/NNG/*+역/NNG/*,Place-station
시청·용인대역,0,0,0,NNP,지명,,시청·용인대역,Preanalysis,*,*,시청+·+용인+대+역,시청/NNG/*+·/SC/*+용인/NNP/지명+대/NNG/*+역/NNG/*,Place-station
시청용인대역,0,0,0,NNP,지명,,시청용인대역,Compound,*,*,시청+용인+대+역,시청/NNG/*+용인/NNP/지명+대/NNG/*+역/NNG/*,Place-station
학동·증심사입구역,0,0,0,NNP,지명,,학동·증심사입구역,Preanalysis,*,*,학동+·+증심사+입구+역,학동/NNG/*+·/SC/*+증심사/NNP/지명+입구/NNG/*+역/NNG/*,Place-station
학동증심사입구역,0,0,0,NNP,지명,,학동증심사입구역,Compound,*,*,학동+증심사+입구+역,학동/NNG/*+증심사/NNP/지명+입구/NNG/*+역/NNG/*,Place-station
전대·에버랜드역,0,0,0,NNP,지명,,전대·에버랜드역,Preanalysis,*,*,전대+·+에버랜드+역,전대/NNG/*+·/SC/*+에버랜드/NNP/지명+역/NNG/*,Place-station
전대에버랜드역,0,0,0,NNP,지명,,전대에버랜드역,Compound,*,*,전대+에버랜드+역,전대/NNG/*+에버랜드/NNP/지명+역/NNG/*,Place-station
운동장·송담대역,0,0,0,NNP,지명,,운동장·송담대역,Preanalysis,*,*,운동+장+·+송담+대+역,운동/NNG/*+장/NNG/*+·/SC/*+송담/NNP/지명+대/NNG/*+역/NNG/*,Place-station
운동장송담대역,0,0,0,NNP,지명,,운동장·송담대역,Compound,*,*,운동+장+송담+대+역,운동/NNG/*+장/NNG/*+송담/NNP/지명+대/NNG/*+역/NNG/*,Place-station
# ----- 여기까지 했음
# ----- 해수욕장, 농수산물 등을 어찌 처리해야할지 - 이렇게 긴건 그냥 등록하지 말자 - 해수욕장은 그냥 단일 명사로 만들까?
#망상해수욕장역,0,0,0,NNP,지명,,망상해수욕장역,Compound,*,*,망상+해수+욕+장+역,망상/NNP/지명+해수/NNG/*+욕/NNG/*+장/NNG/*+역/NNG/*,Place-station
#매천농수산물시장역,0,0,0,NNP,지명,,매천농수산물시장역,Compound,*,*,매천+농+수산+물+시장+역,매천/NNG/*+농/NNG/*+수산/NNG/*+물/NNG/*+시장/NNG/*+역/NNG/*,Place-station
#반여농산물시장역,0,0,0,NNP,지명,,반여농산물시장역,Compound,*,*,반여+농산+물+시장+역,반여/NNP/지명+농산/NNG/*+물/NNG/*+시장/NNG/*+역/NNG/*,Place-station
#부산대양산캠퍼스역,0,0,0,NNP,지명,,부산대양산캠퍼스역,Compound,*,*,부산+대+양산+캠퍼스+역,부산/NNP/지명+대/NNG/*+양산/NNG/*+캠퍼스/NNG/*+역/NNG/*,Place-station
#부천종합운동장역,0,0,0,NNP,지명,,부천종합운동장역,Compound,*,*,부천+종합+운동+장+역,부천/NNP/지명+종합/NNG/*+운동/NNG/*+장/NNG/*+역/NNG/*,Place-station
# ----- 이런건 어떻게....
#백원역,0,0,0,NNP,지명,,백원역,Compound,*,*,백+원+역,백/NR/*+원/NNBC/*+역/NNG/*,Place-station
#천원역,0,0,0,NNP,지명,,천원역,Compound,*,*,천+원+역,천/NR/*+원/NNBC/*+역/NNG/*,Place-station
